wave.vcd
$date
	Sat May 30 21:56:05 2026
$end
$version
	Icarus Verilog
$end
$timescale
	1ps
$end
$scope module tb $end
$scope module stim1 $end
$var wire 1 ! clk $end
$upscope $end
$upscope $end
$scope module tb $end
$var wire 1 " tb_mismatch $end
$upscope $end
$scope module tb $end
$var reg 1 ! clk $end
$upscope $end
$scope module tb $end
$var wire 1 # reset $end
$upscope $end
$scope module tb $end
$var wire 1 $ s $end
$upscope $end
$scope module tb $end
$var wire 1 % w $end
$upscope $end
$scope module tb $end
$var wire 1 & z_ref $end
$upscope $end
$scope module tb $end
$var wire 1 ' z_dut $end
$upscope $end
$enddefinitions $end
$comment Show the parameter values. $end
$dumpall
$end
#0
$dumpvars
x'
x&
0%
0$
1#
0"
0!
$end
#5
0"
0&
0'
1!
#10
0!
#15
0#
1!
#20
0!
#25
1!
#30
0!
#35
1$
1!
#40
0!
#45
1%
1!
#50
0!
#55
1!
#60
0!
#65
1!
#70
0!
#75
0%
1!
#80
1%
0!
#85
1!
#90
0%
0!
#95
1%
1!
#100
0!
#105
0"
1&
1'
0%
1!
#110
1%
0!
#115
0"
0'
0&
0%
1!
#120
1%
0!
#125
0%
1!
#130
1%
0!
#135
1!
#140
0%
0!
#145
1%
1!
#150
0%
0!
#155
1!
#160
0!
#165
1%
1!
#170
0%
0!
#175
1%
1!
#180
0!
#185
1!
#190
0!
#195
0"
1'
1&
0%
1!
#200
0!
#205
0"
0&
0'
1!
#210
0!
#215
1%
1!
#220
0%
0!
#225
1%
1!
#230
0!
#235
1!
#240
0!
#245
1!
#250
0%
0!
#255
0"
1'
1&
1!
#260
1%
0!
#265
0"
0&
0'
1!
#270
0!
#275
0%
1!
#280
0!
#285
0"
1&
1'
1!
#290
0!
#295
0"
0'
0&
1!
#300
1%
0!
#305
0%
1!
#310
0!
#315
1%
1!
#320
0!
#325
0%
1!
#330
0!
#335
1!
#340
0!
#345
1!
#350
1%
0!
#355
1!
#360
0!
#365
1!
#370
0!
#375
0%
1!
#380
0!
#385
1%
1!
#390
0!
#395
1!
#400
0%
0!
#405
1!
#410
1%
0!
#415
1!
#420
0%
0!
#425
1%
1!
#430
0!
#435
0"
1'
1&
0%
1!
#440
1%
0!
#445
0"
0&
0'
1!
#450
0!
#455
0%
1!
#460
1%
0!
#465
1!
#470
0%
0!
#475
1!
#480
0!
#485
1!
#490
1%
0!
#495
1!
#500
0%
0!
#505
1!
#510
1%
0!
#515
1!
#520
0!
#525
0"
1&
1'
1!
#530
0!
#535
0"
0'
0&
0%
1!
#540
1%
0!
#545
1!
#550
0!
#555
0%
1!
#560
0!
#565
1!
#570
0!
#575
1!
#580
0!
#585
1!
#590
1%
0!
#595
1!
#600
0!
#605
1!
#610
0!
#615
0%
1!
#620
1%
0!
#625
1!
#630
0%
0!
#635
1!
#640
1%
0!
#645
0"
1&
1'
1!
#650
0%
0!
#655
0"
0'
0&
1%
1!
#660
0!
#665
1!
#670
0!
#675
0"
1'
1&
0%
1!
#680
0!
#685
0"
0&
0'
1!
#690
1%
0!
#695
0%
1!
#700
0!
#705
1!
#710
1%
0!
#715
1!
#720
0%
0!
#725
1!
#730
1%
0!
#735
0"
1'
1&
0%
1!
#740
0!
#745
0"
0&
0'
1!
#750
1%
0!
#755
0%
1!
#760
0!
#765
1%
1!
#770
0%
0!
#775
1%
1!
#780
0!
#785
1!
#790
0!
#795
0"
1'
1&
1!
#800
0%
0!
#805
0"
0&
0'
1!
#810
0!
#815
1%
1!
#820
0%
0!
#825
1!
#830
1%
0!
#835
1!
#840
0%
0!
#845
1!
#850
0!
#855
1%
1!
#860
0!
#865
0%
1!
#870
0!
#875
1!
#880
1%
0!
#885
0"
1&
1'
1!
#890
0%
0!
#895
0"
0'
0&
1!
#900
0!
#905
1%
1!
#910
0%
0!
#915
1!
#920
1%
0!
#925
0%
1!
#930
0!
#935
1!
#940
1%
0!
#945
0"
1&
1'
0%
1!
#950
1%
0!
#955
0"
0'
0&
1!
#960
0%
0!
#965
1!
#970
0!
#975
1!
#980
1%
0!
#985
0%
1!
#990
0!
#995
1!
#1000
0!
#1005
1%
1!
#1010
0!
#1015
1!
#1020
0%
0!
#1025
1%
1!
#1030
0!
#1035
0"
1'
1&
1#
1!
#1040
0!
#1045
0"
0#
0&
0'
1!
#1050
0!
#1055
1!
#1060
0!
#1065
1!
#1070
0%
0!
#1075
1!
#1080
1%
0!
#1085
0"
1&
1'
1!
#1090
0!
#1095
0"
0'
0&
1!
#1100
0!
#1105
0%
1!
#1110
1%
0!
#1115
1!
#1120
0%
0!
#1125
1!
#1130
0!
#1135
1!
#1140
1%
0!
#1145
1!
#1150
0%
0!
#1155
1!
#1160
1%
0!
#1165
0%
1!
#1170
0!
#1175
1%
1!
#1180
0%
0!
#1185
1!
#1190
1%
0!
#1195
0%
1!
#1200
0!
#1205
1%
1!
#1210
0!
#1215
1!
#1220
0%
0!
#1225
1!
#1230
0!
#1235
1%
1!
#1240
0%
0!
#1245
1!
#1250
1%
0!
#1255
0%
1!
#1260
0!
#1265
1!
#1270
0!
#1275
1%
1!
#1280
0%
0!
#1285
1!
#1290
0!
#1295
1%
1!
#1300
0!
#1305
0%
1!
#1310
1%
0!
#1315
1!
#1320
0!
#1325
1!
#1330
0%
0!
#1335
1%
1!
#1340
0!
#1345
1!
#1350
0%
0!
#1355
1!
#1360
1%
0!
#1365
0%
1!
#1370
0!
#1375
1%
1!
#1380
0!
#1385
0"
1&
1'
0%
1!
#1390
0!
#1395
0"
0'
0&
1%
1!
#1400
0%
0!
#1405
1!
#1410
1%
0!
#1415
0%
1!
#1420
1%
0!
#1425
1!
#1430
0%
0!
#1435
1%
1!
#1440
0%
0!
#1445
1%
1!
#1450
0%
0!
#1455
1!
#1460
1%
0!
#1465
0%
1!
#1470
0!
#1475
1!
#1480
1%
0!
#1485
1!
#1490
0!
#1495
1!
#1500
0!
#1505
0%
1!
#1510
1%
0!
#1515
1!
#1520
0!
#1525
0%
1!
#1530
0!
#1535
0"
1'
1&
1!
#1540
0!
#1545
0"
0&
0'
1!
#1550
0!
#1555
1%
1!
#1560
0!
#1565
1!
#1570
0!
#1575
1!
#1580
0!
#1585
1!
#1590
0%
0!
#1595
0"
1'
1&
1%
1!
#1600
0!
#1605
0"
0&
0'
1!
#1610
0!
#1615
1!
#1620
0!
#1625
1!
#1630
0!
#1635
0%
1!
#1640
0!
#1645
1%
1!
#1650
0!
#1655
0"
1'
1&
0%
1!
#1660
0!
#1665
0"
0&
0'
1!
#1670
0!
#1675
1%
1!
#1680
0%
0!
#1685
1!
#1690
0!
#1695
1!
#1700
0!
#1705
1!
#1710
1%
0!
#1715
0%
1!
#1720
0!
#1725
1%
1!
#1730
0%
0!
#1735
1!
#1740
0!
#1745
1!
#1750
1%
0!
#1755
1!
#1760
0!
#1765
1!
#1770
0!
#1775
0%
1!
#1780
1%
0!
#1785
1!
#1790
0!
#1795
0%
1!
#1800
1%
0!
#1805
0%
1!
#1810
0!
#1815
1%
1!
#1820
0!
#1825
0%
1!
#1830
1%
0!
#1835
0"
1'
1&
0%
1!
#1840
0!
#1845
0"
0&
0'
1%
1!
#1850
0%
0!
#1855
1!
#1860
0!
#1865
1!
#1870
1%
0!
#1875
1!
#1880
0!
#1885
1!
#1890
0%
0!
#1895
0"
1'
1&
1%
1!
#1900
0!
#1905
0"
0&
0'
1!
#1910
0!
#1915
1!
#1920
0!
#1925
1!
#1930
0%
0!
#1935
1%
1!
#1940
0%
0!
#1945
1%
1!
#1950
0%
0!
#1955
1!
#1960
1%
0!
#1965
0%
1!
#1970
0!
#1975
1!
#1980
0!
#1985
1!
#1990
1%
0!
#1995
0%
1!
#2000
0!
#2005
1!
#2010
0!
#2015
1!
#2020
0!
#2025
1%
1!
#2030
0%
0!
#2035
1%
1!
#2040
0%
0!
#2045
1!
#2050
1%
0!
#2055
0%
1!
#2060
1%
0!
#2065
1!
#2070
0!
#2075
1!
#2080
0%
0$
0!
#2085
1!
#2090
0!
#2095
1!
#2100
1%
0!
#2105
1!
#2110
0%
0!
#2115
1!
#2120
0!
#2125
1!
#2130
1%
0!
#2135
1!
#2140
0%
0!
#2145
1!
#2150
0!
#2155
1!
#2160
1%
0!
#2165
1!
#2170
0!
#2175
1!
#2180
0%
0!
#2185
1!
#2190
0!
#2195
1!
#2200
0!
#2205
1!
#2210
0!
#2215
1!
#2220
1%
0!
#2225
1!
#2230
0%
0!
#2235
1!
#2240
0!
#2245
1!
#2250
1%
0!
#2255
1!
#2260
0!
#2265
1!
#2270
0%
0!
#2275
1!
#2280
0!
#2285
1!
#2290
0!
#2295
1!
#2300
0!
#2305
1!
#2310
1%
0!
#2315
1!
#2320
0!
#2325
1!
#2330
1#
0!
#2335
1!
#2340
0%
0#
0!
#2345
1!
#2350
0!
#2355
1!
#2360
1%
0!
#2365
1!
#2370
0%
0!
#2375
1!
#2380
1$
0!
#2385
1!
#2390
1%
0$
0!
#2395
1!
#2400
0!
#2405
1!
#2410
0%
1$
0!
#2415
0"
1'
1&
1!
#2420
1%
0$
0!
#2425
0"
0&
0'
1!
#2430
0%
0!
#2435
1!
#2440
1%
0!
#2445
0"
1&
1'
1!
#2450
0!
#2455
0"
0'
0&
1!
#2460
0!
#2465
1!
#2470
0!
#2475
1!
#2480
0%
0!
#2485
1!
#2490
1%
0!
#2495
1!
#2500
0!
#2505
0"
1&
1'
1!
#2510
0!
#2515
0"
0'
0&
1!
#2520
0%
0!
#2525
1!
#2530
1%
0!
#2535
0"
1'
1&
1!
#2540
0%
0!
#2545
0"
0&
0'
1!
#2550
0!
#2555
1!
#2560
1%
0!
#2565
1!
#2570
1$
0!
#2575
1!
#2580
0%
0$
0!
#2585
1!
#2590
1%
0!
#2595
0"
1'
1&
1!
#2600
0%
0!
#2605
0"
0&
0'
1!
#2610
1%
0!
#2615
1!
#2620
0!
#2625
0"
1&
1'
1!
#2630
0%
0!
#2635
0"
0'
0&
1!
#2640
1%
0!
#2645
1!
#2650
1$
0!
#2655
0"
1'
1&
1!
#2660
0%
0$
0!
#2665
0"
0&
0'
1!
#2670
0!
#2675
1!
#2680
0!
#2685
1!
#2690
1$
0!
#2695
1!
#2700
1%
0$
0!
#2705
1!
#2710
0%
0!
#2715
1!
#2720
0!
#2725
1!
#2730
0!
#2735
1!
#2740
1%
0!
#2745
1!
#2750
0!
#2755
1!
#2760
0%
0!
#2765
1!
#2770
1$
0!
#2775
1!
#2780
1%
0$
0!
#2785
1!
#2790
0%
0!
#2795
1!
#2800
1%
0!
#2805
0"
1&
1'
1!
#2810
0%
0!
#2815
0"
0'
0&
1!
#2820
0!
#2825
1!
#2830
1$
0!
#2835
1!
#2840
0$
0!
#2845
1!
#2850
0!
#2855
1!
#2860
0!
#2865
1!
#2870
1%
0!
#2875
1!
#2880
0%
1$
0!
#2885
1!
#2890
1%
0$
0!
#2895
0"
1'
1&
1!
#2900
1$
0!
#2905
0"
0&
0'
1!
#2910
0$
0!
#2915
1!
#2920
0%
1#
0!
#2925
1!
#2930
0#
0!
#2935
1!
#2940
0!
#2945
1!
#2950
0!
#2955
1!
#2960
1%
0!
#2965
1!
#2970
0%
0!
#2975
1!
#2980
1%
0!
#2985
1!
#2990
0!
#2995
1!
#3000
1$
0!
#3005
1!
#3010
0%
0$
0!
#3015
1!
#3020
0!
#3025
1!
#3030
1%
0!
#3035
1!
#3040
0%
1$
0!
#3045
1!
#3050
1%
0$
0!
#3055
1!
#3060
0!
#3065
0"
1&
1'
1!
#3070
0%
1$
0!
#3075
0"
0'
0&
1!
#3080
0$
0!
#3085
1!
#3090
0!
#3095
1!
#3100
1%
0!
#3105
1!
#3110
0!
#3115
1!
#3120
0%
0!
#3125
0"
1&
1'
1!
#3130
1%
0!
#3135
0"
0'
0&
1!
#3140
0!
#3145
1!
#3150
0!
#3155
1!
#3160
0%
1$
0!
#3165
1!
#3170
0$
0!
#3175
1!
#3180
0!
#3185
1!
#3190
1$
0!
#3195
1!
#3200
1%
0!
#3205
1!
#3210
0!
#3215
0"
1'
1&
1!
#3220
0$
0!
#3225
0"
0&
0'
1!
#3230
0!
#3235
1!
#3240
0!
#3245
1!
#3250
0%
1$
0!
#3255
1!
#3260
1%
0!
#3265
1!
#3270
0%
0$
0!
#3275
1!
#3280
1%
0!
#3285
1!
#3290
0%
0!
#3295
1!
#3300
1%
0!
#3305
0"
1&
1'
1!
#3310
0!
#3315
0"
0'
0&
1!
#3320
0%
0!
#3325
1!
#3330
0!
#3335
1!
#3340
0!
#3345
1!
#3350
0!
#3355
1!
#3360
0!
#3365
1!
#3370
0!
#3375
1!
#3380
0!
#3385
1!
#3390
1%
0!
#3395
1!
#3400
0%
0!
#3405
1!
#3410
0!
#3415
1!
#3420
0!
#3425
1!
#3430
1%
0!
#3435
1!
#3440
0%
0!
#3445
1!
#3450
1%
1$
0!
#3455
0"
1'
1&
1!
#3460
0$
0!
#3465
0"
0&
0'
1!
#3470
0%
0!
#3475
1!
#3480
1%
0!
#3485
0"
1&
1'
1!
#3490
0!
#3495
0"
0'
0&
1!
#3500
0!
#3505
1!
#3510
0%
1$
0!
#3515
0"
1'
1&
1!
#3520
1%
0!
#3525
0"
0&
0'
1!
#3530
0$
0!
#3535
1!
#3540
0%
0!
#3545
0"
1&
1'
1!
#3550
0!
#3555
0"
0'
0&
1!
#3560
0!
#3565
1!
#3570
1%
0!
#3575
1!
#3580
0%
0!
#3585
1!
#3590
1%
0!
#3595
1!
#3600
0!
#3605
0"
1&
1'
1!
#3610
0%
1#
0!
#3615
0"
0'
0&
1!
#3620
1%
0#
0!
#3625
1!
#3630
0!
#3635
1!
#3640
0!
#3645
1!
#3650
0%
0!
#3655
1!
#3660
0!
#3665
1!
#3670
0!
#3675
1!
#3680
1%
0!
#3685
1!
#3690
0%
1$
0!
#3695
1!
#3700
0$
0!
#3705
1!
#3710
0!
#3715
1!
#3720
1$
0!
#3725
1!
#3730
0$
0!
#3735
1!
#3740
1%
0!
#3745
1!
#3750
0!
#3755
0"
1'
1&
1!
#3760
0%
0!
#3765
0"
0&
0'
1!
#3770
0!
#3775
1!
#3780
0!
#3785
1!
#3790
0!
#3795
1!
#3800
1%
0!
#3805
1!
#3810
0%
0!
#3815
1!
#3820
0!
#3825
1!
#3830
0!
#3835
1!
#3840
0!
#3845
1!
#3850
1%
0!
#3855
1!
#3860
0%
0!
#3865
1!
#3870
1%
0!
#3875
0"
1'
1&
1!
#3880
0!
#3885
0"
0&
0'
1!
#3890
0%
0!
#3895
1!
#3900
0!
#3905
1!
#3910
0!
#3915
1!
#3920
1%
0!
#3925
1!
#3930
0!
#3935
0"
1'
1&
1!
#3940
0!
#3945
0"
0&
0'
1!
#3950
0!
#3955
1!
#3960
0%
0!
#3965
0"
1&
1'
1!
#3970
1%
0!
#3975
0"
0'
0&
1!
#3980
0%
0!
#3985
1!
#3990
0!
#3995
1!
#4000
0!
#4005
1!
#4010
1%
0!
#4015
1!
#4020
0!
#4025
0"
1&
1'
1!
#4030
0%
0!
#4035
0"
0'
0&
1!
#4040
1%
0!
#4045
1!
#4050
1$
0!
#4055
0"
1'
1&
1!
#4060
0%
0$
0!
#4065
0"
0&
0'
1!
#4070
0!
#4075
1!
#4080
0!
#4085
1!
#4090
0!
#4095
1!
#4100
1%
0!
#4105
1!
#4110
0!
#4115
0"
1'
1&
1!
#4120
0%
0!
#4125
0"
0&
0'
1!
#4130
1%
0!
#4135
1!
#4140
0%
0!
#4145
1!
#4150
1%
0!
#4155
1!
#4160
0%
0!
#4165
1!
#4170
0!
#4175
1!
#4180
0!
#4185
1!
#4190
1%
0!
#4195
1!
#4200
0!
#4205
0"
1&
1'
1!
#4210
0!
#4215
0"
0'
0&
1!
#4220
0%
0!
#4225
1!
#4230
1%
0!
#4235
0"
1'
1&
1!
#4240
0%
0!
#4245
0"
0&
0'
1!
#4250
1%
1$
0!
#4255
1!
#4260
0$
0!
#4265
0"
1&
1'
1!
#4270
0!
#4275
0"
0'
0&
1!
#4280
0%
0!
#4285
1!
#4290
1%
0!
#4295
0"
1'
1&
1!
#4300
0%
0!
#4305
0"
0&
0'
1!
#4310
1%
0!
#4315
1!
#4320
0%
0!
#4325
1!
#4330
0!
#4335
1!
#4340
1$
0!
#4345
1!
#4350
1%
0$
0!
#4355
1!
#4360
0%
1#
0!
#4365
1!
#4370
1%
0!
#4375
1!
#4380
0#
0!
#4385
1!
#4390
0%
0!
#4395
1!
#4400
1%
1$
0!
#4405
1!
#4410
0$
0!
#4415
1!
#4420
0%
1$
0!
#4425
1!
#4430
0$
0!
#4435
1!
#4440
1%
1$
0!
#4445
1!
#4450
0$
0!
#4455
1!
#4460
0%
0!
#4465
0"
1&
1'
1!
#4470
1%
0!
#4475
0"
0'
0&
1!
#4480
0%
0!
#4485
1!
#4490
0!
#4495
1!
#4500
1%
0!
#4505
1!
#4510
0%
0!
#4515
1!
#4520
0!
#4525
1!
#4530
1%
1$
0!
#4535
1!
#4540
0$
0!
#4545
1!
#4550
0!
#4555
1!
#4560
0!
#4565
1!
#4570
0%
0!
#4575
1!
#4580
0!
#4585
1!
#4590
1%
0!
#4595
1!
#4600
0%
0!
#4605
1!
#4610
1%
0!
#4615
0"
1'
1&
1!
#4620
0%
0!
#4625
0"
0&
0'
1!
#4630
0!
#4635
1!
#4640
1$
0!
#4645
1!
#4650
1%
0$
0!
#4655
1!
#4660
0!
#4665
1!
#4670
0%
0!
#4675
0"
1'
1&
1!
#4680
1%
0!
#4685
0"
0&
0'
1!
#4690
0!
#4695
1!
#4700
0%
0!
#4705
0"
1&
1'
1!
#4710
1%
0!
#4715
0"
0'
0&
1!
#4720
0%
0!
#4725
1!
#4730
0!
#4735
1!
#4740
1%
0!
#4745
1!
#4750
0%
0!
#4755
1!
#4760
1%
1$
0!
#4765
0"
1&
1'
1!
#4770
0%
0$
0!
#4775
0"
0'
0&
1!
#4780
1%
1$
0!
#4785
1!
#4790
0!
#4795
0"
1'
1&
1!
#4800
0%
0!
#4805
0"
0&
0'
1!
#4810
1%
0$
0!
#4815
1!
#4820
0%
0!
#4825
1!
#4830
0!
#4835
1!
#4840
1%
0!
#4845
1!
#4850
0!
#4855
0"
1'
1&
1!
#4860
0!
#4865
0"
0&
0'
1!
#4870
0%
0!
#4875
1!
#4880
1%
0!
#4885
0"
1&
1'
1!
#4890
0%
0!
#4895
0"
0'
0&
1!
#4900
0!
#4905
1!
#4910
0!
#4915
1!
#4920
0!
#4925
1!
#4930
1%
0!
#4935
1!
#4940
0!
#4945
0"
1&
1'
1!
#4950
0%
0!
#4955
0"
0'
0&
1!
#4960
1%
0!
#4965
1!
#4970
0!
#4975
0"
1'
1&
1!
#4980
0!
#4985
0"
0&
0'
1!
#4990
0!
#4995
1!
#5000
0%
0!
#5005
0"
1&
1'
1!
#5010
1%
0!
#5015
0"
0'
0&
1!
#5020
0!
#5025
1!
#5030
0%
0!
#5035
0"
1'
1&
1!
#5040
1%
0!
#5045
0"
0&
0'
1!
#5050
0!
#5055
1!
#5060
0%
0!
#5065
0"
1&
1'
1!
#5070
1$
0!
#5075
0"
0'
0&
1!
#5080
1%
0$
0!
#5085
1!
#5090
0%
0!
#5095
1!
#5100
1%
0!
#5105
1!
#5110
0!
#5115
1!
#5120
0!
#5125
1!
#5130
0!
#5135
1!
#5140
0%
0!
#5145
1!
#5150
1%
0!
#5155
0"
1'
1&
1!
#5160
0!
#5165
0"
0&
0'
1!
#5170
0%
0!
#5175
1!
#5180
1%
0!
#5185
0"
1&
1'
1!
#5190
0%
1#
0!
#5195
0"
0'
0&
1!
#5200
0#
0!
#5205
1!
#5210
0!
#5215
1!
#5220
1%
0!
#5225
1!
#5230
0!
#5235
1!
#5240
0%
0!
#5245
1!
#5250
1%
0!
#5255
1!
#5260
0!
#5265
1!
#5270
0!
#5275
1!
#5280
0%
0!
#5285
1!
#5290
1$
0!
#5295
1!
#5300
0!
#5305
1!
#5310
0$
0!
#5315
1!
#5320
0!
#5325
1!
#5330
0!
#5335
1!
#5340
1%
0!
#5345
1!
#5350
1$
0!
#5355
0"
1'
1&
1!
#5360
0$
0!
#5365
0"
0&
0'
1!
#5370
0!
#5375
1!
#5380
0%
0!
#5385
0"
1&
1'
1!
#5390
1%
0!
#5395
0"
0'
0&
1!
#5400
0!
#5405
1!
#5410
0%
1$
0!
#5415
0"
1'
1&
1!
#5420
1%
0$
0!
#5425
0"
0&
0'
1!
#5430
0%
0!
#5435
1!
#5440
0!
#5445
1!
#5450
0!
#5455
1!
#5460
0!
#5465
1!
#5470
1%
0!
#5475
1!
#5480
0!
#5485
1!
#5490
0%
0!
#5495
1!
#5500
0!
#5505
1!
#5510
1%
0!
#5515
1!
#5520
0%
0!
#5525
1!
#5530
1%
0!
#5535
0"
1'
1&
1!
#5540
0!
#5545
0"
0&
0'
1!
#5550
0!
#5555
1!
#5560
0%
0!
#5565
0"
1&
1'
1!
#5570
0!
#5575
0"
0'
0&
1!
#5580
1%
0!
#5585
1!
#5590
0!
#5595
0"
1'
1&
1!
#5600
0%
0!
#5605
0"
0&
0'
1!
#5610
0!
#5615
1!
#5620
1%
0!
#5625
1!
#5630
0%
0!
#5635
1!
#5640
0!
#5645
1!
#5650
1%
0!
#5655
1!
#5660
0!
#5665
1!
#5670
0%
1$
0!
#5675
1!
#5680
0$
0!
#5685
1!
#5690
1%
1$
0!
#5695
1!
#5700
0!
#5705
1!
#5710
0%
0$
0!
#5715
0"
1'
1&
1!
#5720
1%
0!
#5725
0"
0&
0'
1!
#5730
0!
#5735
1!
#5740
0!
#5745
1!
#5750
0!
#5755
1!
#5760
0%
0!
#5765
1!
#5770
1%
0!
#5775
0"
1'
1&
1!
#5780
0!
#5785
0"
0&
0'
1!
#5790
0%
0!
#5795
1!
#5800
0!
#5805
1!
#5810
1%
0!
#5815
1!
#5820
0%
0!
#5825
1!
#5830
1%
0!
#5835
0"
1'
1&
1!
#5840
0!
#5845
0"
0&
0'
1!
#5850
0!
#5855
1!
#5860
0%
0!
#5865
0"
1&
1'
1!
#5870
0!
#5875
0"
0'
0&
1!
#5880
0!
#5885
1!
#5890
0!
#5895
1!
#5900
0!
#5905
1!
#5910
1%
0!
#5915
1!
#5920
0!
#5925
0"
1&
1'
1!
#5930
0%
0!
#5935
0"
0'
0&
1!
#5940
0!
#5945
1!
#5950
0!
#5955
1!
#5960
0!
#5965
1!
#5970
1%
0!
#5975
1!
#5980
0%
0!
#5985
1!
#5990
0!
#5995
1!
#6000
1$
0!
#6005
1!
#6010
1%
0$
0!
#6015
1!
#6020
0!
#6025
1!
#6030
0%
0!
#6035
1!
#6040
1%
1$
0!
#6045
0"
1&
1'
1!
#6050
0%
0$
0!
#6055
0"
0'
0&
1!
#6060
1%
0!
#6065
1!
#6070
0%
0!
#6075
1!
#6080
0!
#6085
1!
#6090
1%
0!
#6095
1!
#6100
1$
0!
#6105
0"
1&
1'
1!
#6110
0$
0!
#6115
0"
0'
0&
1!
#6120
0%
0!
#6125
1!
#6130
1%
1$
0!
#6135
0"
1'
1&
1!
#6140
0!
#6145
0"
0&
0'
1!
#6150
0$
0!
#6155
1!
#6160
0!
#6165
1!
#6170
0!
#6175
1!
#6180
0!
#6185
1!
#6190
0%
0!
#6195
0"
1'
1&
1!
#6200
0!
#6205
0"
0&
0'
1!
#6210
0!
#6215
1!
#6220
0!
#6225
1!
#6230
1%
0!
#6235
1!
#6240
0!
#6245
1!
#6250
0!
#6255
1!
#6260
1#
0!
#6265
1!
#6270
0%
0#
0!
#6275
1!
#6280
1%
1$
0!
#6285
1!
#6290
0$
0!
#6295
1!
#6300
0%
0!
#6305
1!
#6310
1%
0!
#6315
0"
1'
1&
1!
#6320
1#
0!
#6325
0"
0&
0'
1!
#6330
1$
0#
0!
#6335
1!
#6340
0!
#6345
1!
#6350
0%
0$
0!
#6355
1!
#6360
0!
#6365
1!
#6370
0!
#6375
1!
#6380
0!
#6385
1!
#6390
0!
#6395
1!
#6400
0!
#6405
1!
#6410
0!
#6415
1!
#6420
0!
#6425
1!
#6430
1%
0!
#6435
1!
#6440
0%
0!
#6445
1!
#6450
1%
0!
#6455
0"
1'
1&
1!
#6460
1$
0!
#6465
0"
0&
0'
1!
#6470
0%
0$
0!
#6475
1!
#6480
0!
#6485
1!
#6490
1%
0!
#6495
1!
#6500
0%
0!
#6505
1!
#6510
1%
0!
#6515
0"
1'
1&
1!
#6520
0%
0!
#6525
0"
0&
0'
1!
#6530
1%
0!
#6535
1!
#6540
0%
0!
#6545
1!
#6550
1%
0!
#6555
1!
#6560
0%
0!
#6565
1!
#6570
1%
1$
0!
#6575
0"
1'
1&
1!
#6580
0%
0$
0!
#6585
0"
0&
0'
1!
#6590
1%
0!
#6595
1!
#6600
0!
#6605
0"
1&
1'
1!
#6610
0!
#6615
0"
0'
0&
1!
#6620
0%
1$
0!
#6625
1!
#6630
1%
0!
#6635
0"
1'
1&
1!
#6640
0$
0!
#6645
0"
0&
0'
1!
#6650
0!
#6655
1!
#6660
0!
#6665
1!
#6670
0%
0!
#6675
1!
#6680
1%
0!
#6685
1!
#6690
0%
0!
#6695
1!
#6700
1%
0!
#6705
1!
#6710
0%
0!
#6715
1!
#6720
0!
#6725
1!
#6730
0!
#6735
1!
#6740
1%
0!
#6745
1!
#6750
0%
0!
#6755
1!
#6760
0!
#6765
1!
#6770
0!
#6775
1!
#6780
1%
0!
#6785
1!
#6790
0%
0!
#6795
1!
#6800
1%
0!
#6805
1!
#6810
0%
0!
#6815
1!
#6820
1%
0!
#6825
1!
#6830
0%
0!
#6835
1!
#6840
1%
0!
#6845
0"
1&
1'
1!
#6850
0%
0!
#6855
0"
0'
0&
1!
#6860
0!
#6865
1!
#6870
0!
#6875
1!
#6880
0!
#6885
1!
#6890
1$
0!
#6895
1!
#6900
0!
#6905
1!
#6910
0$
0!
#6915
1!
#6920
1%
1$
0!
#6925
1!
#6930
0%
0$
0!
#6935
1!
#6940
0!
#6945
1!
#6950
0!
#6955
1!
#6960
0!
#6965
1!
#6970
0!
#6975
1!
#6980
1%
0!
#6985
1!
#6990
0!
#6995
0"
1'
1&
1!
#7000
0!
#7005
0"
0&
0'
1!
#7010
0%
0!
#7015
1!
#7020
0!
#7025
1!
#7030
1%
0!
#7035
1!
#7040
1$
0!
#7045
1!
#7050
0$
0!
#7055
1!
#7060
0%
0!
#7065
1!
#7070
1%
1$
1#
0!
