wave.vcd
$date
	Wed May 27 22:24:31 2026
$end
$version
	Icarus Verilog
$end
$timescale
	1ps
$end
$scope module tb $end
$scope module stim1 $end
$var wire 1 ! clk $end
$upscope $end
$upscope $end
$scope module tb $end
$var wire 1 " tb_mismatch $end
$upscope $end
$scope module tb $end
$var reg 1 ! clk $end
$upscope $end
$scope module tb $end
$var wire 1 # areset $end
$upscope $end
$scope module tb $end
$var wire 1 $ load $end
$upscope $end
$scope module tb $end
$var wire 1 % ena $end
$upscope $end
$scope module tb $end
$var wire 4 & data [3:0] $end
$upscope $end
$scope module tb $end
$var wire 4 ' q_ref [3:0] $end
$upscope $end
$scope module tb $end
$var wire 4 ( q_dut [3:0] $end
$upscope $end
$enddefinitions $end
$comment Show the parameter values. $end
$dumpall
$end
#0
$dumpvars
bx (
bx '
b0 &
0%
1$
0#
0"
0!
$end
#5
0"
b0 '
b0 (
b1111 &
1!
#10
0!
#15
0"
b1111 (
b1111 '
0$
bx &
1!
#20
0!
#25
1%
1!
#30
0!
#35
0"
b111 (
b111 '
1!
#40
0!
#45
0"
b11 '
b11 (
0%
1!
#50
0!
#55
1!
#60
0!
#65
1!
#70
0!
#75
1!
#80
0!
#85
1!
#90
0!
#95
1!
#100
0"
b0 '
b0 (
1#
0!
#105
1!
#110
0!
#115
0#
1!
#120
0!
#125
1!
#130
0!
#135
1!
#140
b11 &
1%
0!
#145
b10 &
1!
#150
b1101 &
0!
#155
b110 &
1!
#160
b111 &
0!
#165
b1110 &
1!
#170
b1101 &
0!
#175
b1010 &
1!
#180
b1101 &
1$
1#
0!
#185
b11 &
0$
0#
1!
#190
b1110 &
0!
#195
b1010 &
1!
#200
0!
#205
b1001 &
1!
#210
b1110 &
0!
#215
b1 &
1!
#220
b1010 &
0!
#225
b1001 &
1!
#230
b1111 &
0!
#235
b1100 &
1!
#240
b0 &
0!
#245
b1100 &
1!
#250
b1101 &
0!
#255
b1001 &
1!
#260
b1000 &
0!
#265
b1010 &
1!
#270
b1100 &
0!
#275
b11 &
1!
#280
b100 &
0!
#285
b1010 &
1!
#290
b101 &
0!
#295
b100 &
1!
#300
b1110 &
0!
#305
b11 &
1!
#310
b1010 &
0!
#315
b1000 &
1!
#320
b1001 &
0!
#325
b1101 &
1!
#330
b101 &
0!
#335
b1001 &
1!
#340
b1101 &
0!
#345
b1100 &
1!
#350
b110 &
0!
#355
b0 &
1!
#360
b1010 &
0!
#365
b111 &
1!
#370
b110 &
1$
0!
#375
0"
b110 (
b110 '
b1000 &
0$
1!
#380
b1001 &
0!
#385
0"
b11 '
b11 (
b1 &
1!
#390
b101 &
1$
0!
#395
0"
b101 (
b101 '
b1000 &
0$
1!
#400
b1010 &
0!
#405
0"
b10 '
b10 (
b1 &
1!
#410
b1010 &
0!
#415
0"
b1 (
b1 '
b1000 &
1!
#420
b11 &
0!
#425
0"
b0 '
b0 (
b1010 &
1!
#430
b100 &
0!
#435
b10 &
1!
#440
b100 &
0!
#445
b1110 &
1!
#450
b1001 &
0!
#455
b1011 &
1!
#460
b10 &
0!
#465
1!
#470
b1000 &
0!
#475
b1011 &
1!
#480
0!
#485
b1000 &
1!
#490
b101 &
0!
#495
b1000 &
1!
#500
b100 &
0!
#505
b10 &
1!
#510
b1101 &
0!
#515
b111 &
1!
#520
b1001 &
0!
#525
b1 &
1!
#530
b101 &
0!
#535
b1110 &
1!
#540
b0 &
0!
#545
b110 &
1$
1!
#550
b1001 &
0!
#555
0"
b1001 (
b1001 '
b10 &
0$
1!
#560
b11 &
0!
#565
0"
b100 '
b100 (
b1 &
1!
#570
b1100 &
0!
#575
0"
b10 (
b10 '
b110 &
1!
#580
b101 &
0!
#585
0"
b0 '
b0 (
b100 &
1$
1#
1!
#590
b1001 &
0$
0#
0!
#595
b1111 &
1!
#600
b1 &
0!
#605
b1101 &
0%
1!
#610
b10 &
1%
0!
#615
b0 &
1!
#620
b1010 &
0!
#625
b1011 &
1$
1!
#630
b10 &
0$
0!
#635
b1011 &
1!
#640
b1001 &
0!
#645
b1100 &
1$
1!
#650
b1000 &
0$
0!
#655
b11 &
1!
#660
b1111 &
0!
#665
b0 &
1!
#670
0!
#675
b1010 &
1!
#680
b100 &
0!
#685
b10 &
1!
#690
b111 &
1$
0!
#695
0"
b111 '
b111 (
b0 &
0$
1!
#700
b1001 &
0!
#705
0"
b11 (
b11 '
b1 &
1!
#710
b1000 &
0!
#715
0"
b1 '
b1 (
b111 &
1!
#720
b101 &
1$
0!
#725
0"
b101 (
b101 '
b1001 &
0$
1!
#730
b0 &
0!
#735
0"
b10 '
b10 (
b1111 &
1!
#740
b1000 &
0!
#745
0"
b1 (
b1 '
b101 &
1!
#750
b1000 &
1$
0!
#755
0"
b1000 '
b1000 (
b111 &
0$
1!
#760
b1000 &
0!
#765
0"
b100 (
b100 '
b1 &
1!
#770
b1100 &
0!
#775
0"
b10 '
b10 (
b1111 &
1!
#780
b11 &
0!
#785
0"
b1 (
b1 '
b1001 &
1!
#790
b100 &
0!
#795
0"
b0 '
b0 (
b101 &
1!
#800
b1111 &
0!
#805
b110 &
1!
#810
b1100 &
0!
#815
b1000 &
1!
#820
b1001 &
0!
#825
b11 &
1!
#830
b1001 &
0!
#835
b101 &
1!
#840
0!
#845
b1000 &
1!
#850
0!
#855
b1011 &
1!
#860
b0 &
1#
0!
#865
0#
1!
#870
b1101 &
1$
1#
0!
#875
b100 &
0$
0#
1!
#880
b1110 &
0!
#885
b11 &
1!
#890
0!
#895
b1110 &
1!
#900
b1001 &
0!
#905
b1000 &
1$
1!
#910
b1100 &
0$
0!
#915
b101 &
1!
#920
b100 &
0!
#925
b1000 &
1!
#930
b11 &
0!
#935
1!
#940
b1001 &
0!
#945
b1000 &
1!
#950
b1011 &
0!
#955
b100 &
1#
1!
#960
b1001 &
0#
0!
#965
b0 &
1!
#970
b1011 &
0!
#975
b1 &
1!
#980
b1111 &
0!
#985
b110 &
1$
1!
#990
b111 &
0$
0!
#995
b101 &
1!
#1000
b1010 &
0!
#1005
b1110 &
1!
#1010
b100 &
0!
#1015
b1000 &
1!
#1020
b11 &
0!
#1025
b1111 &
1!
#1030
b100 &
0!
#1035
1!
#1040
b1001 &
0!
#1045
b1100 &
1$
1!
#1050
b1110 &
0$
0!
#1055
b0 &
1$
1!
#1060
b11 &
0$
0!
#1065
b1010 &
1!
#1070
b1 &
1$
0!
#1075
0"
b1 (
b1 '
b101 &
0$
1!
#1080
0"
b0 '
b0 (
b0 &
1#
0!
#1085
b1100 &
0#
1!
#1090
b11 &
0!
#1095
b1001 &
1!
#1100
b111 &
0!
#1105
b101 &
1!
#1110
b10 &
0!
#1115
b100 &
1$
1!
#1120
0$
0!
#1125
b111 &
1!
#1130
b11 &
0!
#1135
b1011 &
1!
#1140
b1101 &
1$
0!
#1145
0"
b1101 (
b1101 '
b101 &
0$
1!
#1150
b11 &
0!
#1155
0"
b110 '
b110 (
b101 &
1!
#1160
b1110 &
0!
#1165
0"
b11 (
b11 '
b0 &
1!
#1170
b111 &
0!
#1175
0"
b1 '
b1 (
b110 &
1!
#1180
b1100 &
1$
0!
#1185
0"
b1100 (
b1100 '
b1001 &
0$
1!
#1190
b1010 &
0!
#1195
0"
b110 '
b110 (
b11 &
1!
#1200
b10 &
0!
#1205
0"
b11 (
b11 '
b1 &
1!
#1210
b0 &
0!
#1215
0"
b1 '
b1 (
b1 &
1!
#1220
b11 &
0!
#1225
0"
b0 (
b0 '
b111 &
1!
#1230
b100 &
0!
#1235
1!
#1240
b1010 &
0!
#1245
b1011 &
1#
1!
#1250
b1000 &
0#
0!
#1255
b1101 &
1$
1!
#1260
b1001 &
0$
0!
#1265
b1011 &
1!
#1270
b101 &
0!
#1275
b1 &
1!
#1280
b1010 &
0!
#1285
b1000 &
1!
#1290
b1110 &
0!
#1295
b10 &
1$
1!
#1300
b1110 &
0$
0!
#1305
1!
#1310
b1011 &
0!
#1315
b1 &
1!
#1320
b1101 &
0!
#1325
b1010 &
1!
#1330
b1101 &
0!
#1335
b1111 &
1!
#1340
b111 &
0!
#1345
b1011 &
1!
#1350
b1010 &
0!
#1355
b1110 &
1!
#1360
b101 &
0!
#1365
b1100 &
1!
#1370
b100 &
0!
#1375
b1101 &
1!
#1380
b100 &
0!
#1385
b1010 &
1#
1!
#1390
b0 &
0#
0!
#1395
b1100 &
1$
1!
#1400
b1101 &
0$
0!
#1405
b1111 &
1!
#1410
b1101 &
0!
#1415
b1011 &
1!
#1420
b1101 &
0!
#1425
b111 &
0%
1!
#1430
b1 &
1%
0!
#1435
b1000 &
1!
#1440
b1001 &
0!
#1445
b1101 &
1!
#1450
b1001 &
0!
#1455
b1 &
1#
1!
#1460
b1111 &
0#
0!
#1465
b1010 &
1!
#1470
0!
#1475
b101 &
1!
#1480
b11 &
0!
#1485
b1000 &
1$
1!
#1490
b1 &
0!
#1495
0"
b0 (
b0 '
b0 &
0$
1#
1!
#1500
b1 &
0#
0!
#1505
b0 &
1!
#1510
b1 &
0!
#1515
b0 &
1!
#1520
b1110 &
0!
#1525
b1010 &
1!
#1530
b101 &
0!
#1535
b1111 &
1!
#1540
b100 &
0!
#1545
b1111 &
1!
#1550
b10 &
0!
#1555
b1011 &
1!
#1560
b101 &
0!
#1565
1!
#1570
b0 &
0!
#1575
b1110 &
1!
#1580
b1101 &
0!
#1585
b101 &
1!
#1590
b1 &
0!
#1595
b100 &
1!
#1600
b1011 &
0!
#1605
b11 &
1!
#1610
b0 &
0!
#1615
b110 &
1!
#1620
b1011 &
0!
#1625
b111 &
1!
#1630
b1101 &
0!
#1635
b1110 &
1!
#1640
b1100 &
0!
#1645
b110 &
1$
1!
#1650
b0 &
0$
0!
#1655
b101 &
1!
#1660
b110 &
0!
#1665
b101 &
1!
#1670
b1010 &
1#
0!
#1675
b100 &
0#
1!
#1680
b1001 &
0!
#1685
b1000 &
1!
#1690
b1 &
0!
#1695
b100 &
1!
#1700
b1100 &
0!
#1705
b11 &
0%
1!
#1710
b100 &
1%
0!
#1715
b1100 &
1!
#1720
b1110 &
0!
#1725
b1010 &
1!
#1730
b1011 &
0!
#1735
b100 &
0%
1!
#1740
b101 &
1%
0!
#1745
b0 &
1!
#1750
b10 &
0!
#1755
b1 &
1!
#1760
b1110 &
0%
0!
#1765
b111 &
1%
1!
#1770
b1111 &
0!
#1775
b1011 &
1!
#1780
b1111 &
0!
#1785
b1 &
1!
#1790
b1111 &
0!
#1795
b110 &
1!
#1800
b100 &
1$
0!
#1805
0"
b100 '
b100 (
b0 &
1!
#1810
b111 &
0$
0!
#1815
0"
b10 (
b10 '
b1010 &
1!
#1820
b1 &
0!
#1825
0"
b1 '
b1 (
b101 &
1!
#1830
b1 &
0!
#1835
0"
b0 (
b0 '
b1001 &
1!
#1840
b11 &
0!
#1845
b0 &
1!
#1850
b10 &
1#
0!
#1855
b1000 &
0#
1!
#1860
b1011 &
0!
#1865
b1 &
0%
1!
#1870
b101 &
1%
0!
#1875
b1100 &
1!
#1880
b101 &
1$
0!
#1885
0"
b101 (
b101 '
b1000 &
0$
1!
#1890
b1011 &
0!
#1895
0"
b10 '
b10 (
b110 &
1!
#1900
b10 &
0!
#1905
0"
b1 (
b1 '
b100 &
1!
#1910
b1111 &
0!
#1915
0"
b0 '
b0 (
b1011 &
1!
#1920
b1101 &
0!
#1925
b11 &
1!
#1930
b10 &
0!
#1935
b1100 &
1!
#1940
b111 &
0!
#1945
b11 &
0%
1!
#1950
b1101 &
1%
0!
#1955
b1011 &
1!
#1960
b111 &
0!
#1965
b10 &
1!
#1970
b0 &
0!
#1975
b1010 &
1!
#1980
b1111 &
0!
#1985
b1100 &
0%
1!
#1990
b11 &
1%
0!
#1995
b1000 &
1!
#2000
b110 &
0!
#2005
b1111 &
1!
#2010
b101 &
0!
#2015
b111 &
1!
#2020
b1011 &
0!
#2025
b110 &
1!
#2030
b1110 &
0!
#2035
b101 &
1!
#2040
b100 &
0!
#2045
b1101 &
1!
#2050
b1100 &
0!
#2055
b11 &
1!
#2060
b0 &
0!
#2065
b1110 &
0%
1!
#2070
b100 &
1%
0!
#2075
b1111 &
1#
1!
#2080
b100 &
0#
0!
#2085
1!
#2090
0!
#2095
b111 &
1!
#2100
b1110 &
0!
#2105
b1010 &
1!
#2110
b1 &
0%
0!
#2115
b1001 &
1%
1!
#2120
b10 &
0!
#2125
b1000 &
1$
1!
#2130
b111 &
0$
0!
#2135
b10 &
1!
