wave.vcd
$date
	Fri May 29 21:57:45 2026
$end
$version
	Icarus Verilog
$end
$timescale
	1ps
$end
$scope module tb $end
$scope module stim1 $end
$var wire 1 ! clk $end
$upscope $end
$upscope $end
$scope module tb $end
$var wire 1 " tb_mismatch $end
$upscope $end
$scope module tb $end
$var wire 6 # y [5:0] $end
$upscope $end
$scope module tb $end
$var wire 1 $ w $end
$upscope $end
$scope module tb $end
$var wire 1 % Y1_ref $end
$upscope $end
$scope module tb $end
$var wire 1 & Y1_dut $end
$upscope $end
$scope module tb $end
$var wire 1 ' Y3_ref $end
$upscope $end
$scope module tb $end
$var wire 1 ( Y3_dut $end
$upscope $end
$enddefinitions $end
$comment Show the parameter values. $end
$dumpall
$end
#0
$dumpvars
x(
x'
x&
x%
x$
bx #
0"
0!
$end
#5
0'
0"
0%
0(
0&
1$
b100 #
1!
#10
b10 #
0!
#15
b1000 #
1!
#20
0"
1'
1(
0$
b100000 #
0!
#25
0"
0'
0(
1$
b1000 #
1!
#30
0"
1%
1&
b1 #
0!
#35
0"
0%
0&
0$
b1000 #
1!
#40
1'
0"
1(
b10 #
0!
#45
1!
#50
0"
0'
0(
1$
b1000 #
0!
#55
b100 #
1!
#60
0"
0'
0$
b1 #
0!
#65
1$
b10000 #
1!
#70
b100 #
0!
#75
b10 #
1!
#80
0"
1'
1(
0$
0!
#85
b100 #
1!
#90
0'
0"
1%
0(
1&
1$
b1 #
0!
#95
1!
#100
0"
0%
0&
b10 #
0!
#105
b1000 #
1!
#110
0$
b1 #
0!
#115
1$
b1000 #
1!
#120
0"
1'
1(
0$
b100000 #
0!
#125
b10000 #
1!
#130
b100 #
0!
#135
b10 #
1!
#140
0"
0'
0(
1$
b100 #
0!
#145
0"
1'
1(
0$
b10 #
1!
#150
0'
0"
0(
b1 #
0!
#155
1'
0"
1(
b10000 #
1!
#160
0"
0'
0(
1$
b1000 #
0!
#165
b100000 #
1!
#170
0$
b1000 #
0!
#175
0"
1%
1&
1$
b1 #
1!
#180
0"
0%
0&
b10 #
0!
#185
0"
0'
0$
b1 #
1!
#190
1$
b10 #
0!
#195
b100 #
1!
#200
0"
0'
0$
b1000 #
0!
#205
1$
b100000 #
1!
#210
0"
1'
1(
0$
0!
#215
0"
0'
0(
1$
1!
#220
1'
0"
1(
0$
b100 #
0!
#225
0'
0"
0(
b1 #
1!
#230
1$
b10 #
0!
#235
0"
0'
0$
b1 #
1!
#240
1$
b100000 #
0!
#245
b1000 #
1!
#250
1'
0"
1(
0$
b10 #
0!
#255
0"
0'
0(
1$
b100000 #
1!
#260
0"
1'
1(
0$
0!
#265
0'
0(
b1 #
1!
#270
1'
0"
1(
b10000 #
0!
#275
b100 #
1!
#280
0"
0'
0(
1$
b1000 #
0!
#285
1!
#290
0"
1'
1(
0$
b100000 #
0!
#295
0"
0'
0(
1$
b10 #
1!
#300
0"
1'
1(
0$
b10000 #
0!
#305
0"
0'
0(
1$
b100000 #
1!
#310
b10000 #
0!
#315
b10 #
1!
#320
0"
0'
0$
b1000 #
0!
#325
1'
0"
1(
b10000 #
1!
#330
0'
0"
0(
b1000 #
0!
#335
1'
0"
1(
b100 #
1!
#340
0"
0'
0(
1$
b10 #
0!
#345
0"
1'
1(
0$
b100 #
1!
#350
b100000 #
0!
#355
0"
1'
b100 #
1!
#360
0'
0"
0(
b1000 #
0!
#365
1$
b10000 #
1!
#370
0!
#375
b1000 #
1!
#380
0!
#385
0$
b1 #
1!
#390
1$
b100 #
0!
#395
0"
1'
1(
0$
1!
#400
0"
0'
0(
1$
b100000 #
0!
#405
0"
1'
1(
0$
b10000 #
1!
#410
0"
0'
0(
1$
b100 #
0!
#415
0"
1'
1(
0$
b100000 #
1!
#420
b10000 #
0!
#425
0"
0'
0(
1$
b1000 #
1!
#430
0$
b1 #
0!
#435
1$
b100 #
1!
#440
0"
1'
1(
0$
0!
#445
0'
0"
0(
b1000 #
1!
#450
b1 #
0!
#455
1'
0"
1(
b10 #
1!
#460
0"
0'
0(
1$
b1000 #
0!
#465
1'
0"
1(
0$
b10000 #
1!
#470
0!
#475
0'
0"
0(
b1000 #
1!
#480
1'
0"
1(
b10000 #
0!
#485
0"
0'
0(
1$
b100 #
1!
#490
b100000 #
0!
#495
0"
1%
1&
b1 #
1!
#500
0"
0%
0&
b100000 #
0!
#505
0$
b1 #
1!
#510
1$
b100000 #
0!
#515
b10 #
1!
#520
0"
0'
0$
b1000 #
0!
#525
1$
b100000 #
1!
#530
1'
0"
1(
0$
b100 #
0!
#535
0'
0"
0(
b1 #
1!
#540
1$
b10 #
0!
#545
0"
1'
1(
0$
b10000 #
1!
#550
b10 #
0!
#555
0"
0'
0(
1$
b100 #
1!
#560
0"
0'
0$
b1 #
0!
#565
b1000 #
1!
#570
1$
b100 #
0!
#575
b100000 #
1!
#580
0"
1'
1(
0$
b10000 #
0!
#585
0"
0'
0(
1$
1!
#590
0"
0'
0$
b1 #
0!
#595
1'
0"
1(
b10 #
1!
#600
0'
0"
0(
b1 #
0!
#605
0"
1%
1&
1$
1!
#610
1'
0"
0%
0&
1(
0$
b100 #
0!
#615
0"
0'
0(
1$
b10000 #
1!
#620
0"
1'
1(
0$
b100000 #
0!
#625
0"
0'
0(
1$
1!
#630
b10 #
0!
#635
b10000 #
1!
#640
b1000 #
0!
#645
1'
0"
1(
0$
b100 #
1!
#650
b10 #
0!
#655
0'
0"
1%
0(
1&
1$
b1 #
1!
#660
0"
0%
0&
0$
b1000 #
0!
#665
0"
1%
1&
1$
b1 #
1!
#670
1'
0"
0%
0&
1(
0$
b100 #
0!
#675
b10 #
1!
#680
0"
0'
0(
1$
b1000 #
0!
#685
b100 #
1!
#690
0!
#695
0"
0'
0$
b1 #
1!
#700
1'
1(
b100000 #
0!
#705
b10000 #
1!
#710
0"
0'
0(
1$
b1000 #
0!
#715
1!
#720
1'
0"
1(
0$
b10 #
0!
#725
0"
0'
0(
1$
b1000 #
1!
#730
1'
0"
1(
0$
b10 #
0!
#735
b100 #
1!
#740
0!
#745
0"
0'
0(
1$
b10000 #
1!
#750
b1000 #
0!
#755
1!
#760
b10 #
0!
#765
b10000 #
1!
#770
b1000 #
0!
#775
b10 #
1!
#780
0!
#785
0"
0'
0$
b1000 #
1!
#790
0"
1%
1&
1$
b1 #
0!
#795
1'
0"
0%
0&
1(
0$
b100000 #
1!
#800
0"
1'
b100 #
0!
#805
0"
0'
0(
1$
1!
#810
0"
1'
1(
0$
0!
#815
0'
0"
0(
b1 #
1!
#820
0!
#825
1'
0"
1(
b10 #
1!
#830
0"
0'
0(
1$
b10000 #
0!
#835
0"
1'
1(
0$
1!
#840
0'
0"
0(
b1 #
0!
#845
1$
b100000 #
1!
#850
b1000 #
0!
#855
1'
0"
1(
0$
b10 #
1!
#860
0"
0'
0(
1$
0!
#865
0"
1'
1(
0$
1!
#870
b100000 #
0!
#875
0"
0'
0(
1$
b10000 #
1!
#880
0"
1'
1(
0$
b10 #
0!
#885
0'
0"
0(
b1000 #
1!
#890
0"
1%
1&
1$
b1 #
0!
#895
0"
0%
0&
0$
1!
#900
0!
#905
1$
b1000 #
1!
#910
0!
#915
b10000 #
1!
#920
b100000 #
0!
#925
b10 #
1!
#930
0!
#935
b100 #
1!
#940
0!
#945
0"
1'
1(
0$
1!
#950
b100000 #
0!
#955
b10000 #
1!
#960
b100 #
0!
#965
b100000 #
1!
#970
0'
0(
b1 #
0!
#975
1!
#980
1$
b10000 #
0!
#985
0"
1%
1&
b1 #
1!
#990
1'
0"
0%
1(
0&
0$
b10000 #
0!
#995
0'
0"
0(
b1000 #
1!
#1000
1$
0!
#1005
b110 #
1!
#1010
0"
1'
1(
0$
b110100 #
0!
#1015
0"
0'
0(
1$
b100100 #
1!
#1020
b10100 #
0!
#1025
0"
1'
1(
0$
b110000 #
1!
#1030
0'
0"
1%
0(
1&
1$
b1001 #
0!
#1035
1'
0"
0%
0&
1(
0$
b100000 #
1!
#1040
0"
0'
0(
1$
b1000 #
0!
#1045
b100 #
1!
#1050
0"
1'
1(
0$
b10010 #
0!
#1055
b10000 #
1!
#1060
0"
0'
0(
1$
b100110 #
0!
#1065
b10000 #
1!
#1070
0"
1'
1(
0$
b100 #
0!
#1075
b110 #
1!
#1080
0"
0'
0(
1$
b10100 #
0!
#1085
b110110 #
1!
#1090
0"
1%
1&
b1 #
0!
#1095
0"
0%
0&
b10 #
1!
#1100
b110000 #
0!
#1105
b100110 #
1!
#1110
b110 #
0!
#1115
b100000 #
1!
#1120
b100100 #
0!
#1125
0"
1%
1&
b1 #
1!
#1130
1'
0"
0%
1(
0&
0$
b110000 #
0!
#1135
b100010 #
1!
#1140
0!
#1145
0'
0"
1%
0(
1&
1$
b1001 #
1!
#1150
1'
0"
0%
0&
1(
0$
b110000 #
0!
#1155
0"
0'
0(
1$
b100010 #
1!
#1160
b10000 #
0!
#1165
0"
1'
1(
0$
b110110 #
1!
#1170
0"
0'
0(
1$
b1000 #
0!
#1175
b10100 #
1!
#1180
b110100 #
0!
#1185
b10 #
1!
#1190
0"
1'
1(
0$
0!
#1195
0"
0'
0(
1$
b1000 #
1!
#1200
b10000 #
0!
#1205
b110000 #
1!
#1210
0"
1'
1(
0$
0!
#1215
0"
0'
0(
1$
b10000 #
1!
#1220
0"
1'
1(
0$
b10100 #
0!
#1225
0"
0'
0(
1$
b110 #
1!
#1230
0"
1'
1(
0$
b100110 #
0!
#1235
b10000 #
1!
#1240
0"
0'
0(
1$
0!
#1245
b100100 #
1!
#1250
0"
1'
1(
0$
b100 #
0!
#1255
b110 #
1!
#1260
b110010 #
0!
#1265
0"
0'
0(
1$
1!
#1270
0"
1'
1(
0$
b10 #
0!
#1275
b110110 #
1!
#1280
b100100 #
0!
#1285
0'
0"
1%
0(
1&
1$
b1 #
1!
#1290
b1001 #
0!
#1295
0"
0%
0&
b110000 #
1!
#1300
0"
1'
1(
0$
b10110 #
0!
#1305
b110100 #
1!
#1310
b110 #
0!
#1315
0"
0'
0(
1$
b110110 #
1!
#1320
0"
1'
1(
0$
b10100 #
0!
#1325
b100110 #
1!
#1330
b100 #
0!
#1335
0'
0"
0(
b1001 #
1!
#1340
1'
0"
1(
b110 #
0!
#1345
b110000 #
1!
#1350
0"
0'
0(
1$
0!
#1355
0"
1'
1(
0$
b10010 #
1!
#1360
b10100 #
0!
#1365
0"
0'
0(
1$
b100010 #
1!
#1370
0"
1'
1(
0$
b10 #
0!
#1375
0"
0'
0(
1$
b100100 #
1!
#1380
b1000 #
0!
#1385
1'
0"
1(
0$
b10 #
1!
#1390
0"
0'
0(
1$
b10000 #
0!
#1395
b100100 #
1!
#1400
0"
1'
1(
0$
b110 #
0!
#1405
0'
0"
0(
b1000 #
1!
#1410
1$
b110000 #
0!
#1415
0"
1'
1(
0$
1!
#1420
0"
0'
0(
1$
b110 #
0!
#1425
0"
1'
1(
0$
b10100 #
1!
#1430
0"
0'
0(
1$
b10110 #
0!
#1435
0"
1'
1(
0$
b100000 #
1!
#1440
0"
1'
b110 #
0!
#1445
0"
0'
0(
1$
b10000 #
1!
#1450
0"
1'
1(
0$
b110010 #
0!
#1455
b10 #
1!
#1460
0!
#1465
0"
0'
0(
1$
b10100 #
1!
#1470
0"
1%
1&
b1001 #
0!
#1475
0"
0%
0&
b100100 #
1!
#1480
b100110 #
0!
#1485
0"
1'
1(
0$
b100 #
1!
#1490
0"
0'
0(
1$
0!
#1495
b10 #
1!
#1500
0"
1'
1(
0$
b100000 #
0!
#1505
0"
0'
0(
1$
b110100 #
1!
#1510
0"
1'
1(
0$
b100010 #
0!
#1515
b10000 #
1!
#1520
b110100 #
0!
#1525
0'
0"
1%
1&
0(
1$
b1001 #
1!
#1530
0"
0%
0&
b110100 #
0!
#1535
b110010 #
1!
#1540
0$
b1 #
0!
#1545
0"
1%
1&
1$
1!
#1550
0"
0%
0&
b10010 #
0!
#1555
0"
1'
1(
0$
b100000 #
1!
#1560
b100010 #
0!
#1565
0"
0'
0(
1$
b10010 #
1!
#1570
0"
1'
1(
0$
b100100 #
0!
#1575
0"
0'
0(
1$
b100110 #
1!
#1580
b10110 #
0!
#1585
0"
1'
1(
0$
b100110 #
1!
#1590
0'
0"
1%
0(
1&
1$
b1001 #
0!
#1595
1'
0"
0%
0&
1(
0$
b110100 #
1!
#1600
0"
0'
0(
1$
b110000 #
0!
#1605
0"
1'
1(
0$
b100 #
1!
#1610
b110 #
0!
#1615
0'
0"
0(
b1001 #
1!
#1620
1$
b110000 #
0!
#1625
0"
1'
1(
0$
b10000 #
1!
#1630
0'
0"
1%
0(
1&
1$
b1001 #
0!
#1635
0"
0%
0&
b110 #
1!
#1640
b100 #
0!
#1645
b100010 #
1!
#1650
0"
1'
1(
0$
b110 #
0!
#1655
0"
0'
0(
1$
b100000 #
1!
#1660
0"
1'
1(
0$
b110000 #
0!
#1665
0"
0'
0(
1$
b110 #
1!
#1670
b100 #
0!
#1675
b100000 #
1!
#1680
0"
1%
1&
b1 #
0!
#1685
1'
0"
0%
0&
1(
0$
b10110 #
1!
#1690
0'
0"
1%
0(
1&
1$
b1001 #
0!
#1695
0"
0%
0&
0$
1!
#1700
1$
b100000 #
0!
#1705
b1000 #
1!
#1710
0"
1'
1(
0$
b100100 #
0!
#1715
0'
0"
0(
b1001 #
1!
#1720
0"
1%
1&
1$
0!
#1725
1'
0"
0%
0&
1(
0$
b10100 #
1!
#1730
b10010 #
0!
#1735
0"
0'
0(
1$
b110 #
1!
#1740
0"
1%
1&
b1 #
0!
#1745
1'
0"
0%
0&
1(
0$
b10110 #
1!
#1750
0"
0'
0(
1$
b100010 #
0!
#1755
b10010 #
1!
#1760
0"
0'
0$
b1000 #
0!
#1765
1'
1(
b110000 #
1!
#1770
0"
0'
0(
1$
b110010 #
0!
#1775
0"
1%
1&
b1001 #
1!
#1780
0"
0%
0&
b110100 #
0!
#1785
1!
#1790
0"
1'
1(
0$
0!
#1795
b100100 #
1!
#1800
0'
0"
0(
b1000 #
0!
#1805
1'
0"
1(
b10 #
1!
#1810
0"
0'
0(
1$
b100110 #
0!
#1815
0"
0'
0$
b1001 #
1!
#1820
1$
b110000 #
0!
#1825
b110110 #
1!
#1830
b110100 #
0!
#1835
0"
1'
1(
0$
b110 #
1!
#1840
b10100 #
0!
#1845
b110 #
1!
#1850
0!
#1855
0"
0'
0(
1$
b100000 #
1!
#1860
0$
b1001 #
0!
#1865
1$
b10110 #
1!
#1870
b110110 #
0!
#1875
b100 #
1!
#1880
0"
1%
1&
b1001 #
0!
#1885
0"
0%
0&
0$
b1000 #
1!
#1890
1$
b110100 #
0!
#1895
0"
1'
1(
0$
1!
#1900
0"
0'
0(
1$
b100100 #
0!
#1905
b100 #
1!
#1910
b110110 #
0!
#1915
0"
1'
1(
0$
b110100 #
1!
#1920
0"
0'
0(
1$
b100 #
0!
#1925
b10010 #
1!
#1930
0"
0'
0$
b1 #
0!
#1935
1$
b1000 #
1!
#1940
0"
1'
1(
0$
b100000 #
0!
#1945
b110100 #
1!
#1950
0'
0(
b1 #
0!
#1955
1$
b100110 #
1!
#1960
b100100 #
0!
#1965
0"
1'
1(
0$
b110110 #
1!
#1970
0"
0'
0(
1$
b10100 #
0!
#1975
b110 #
1!
#1980
0"
1'
1(
0$
b100000 #
0!
#1985
0"
0'
0(
1$
b110100 #
1!
#1990
b110000 #
0!
#1995
b10110 #
1!
#2000
0"
1'
1(
0$
b110 #
0!
#2005
0'
0"
0(
b1 #
1!
#2010
1$
b110100 #
0!
#2015
b1000 #
1!
#2020
0!
#2025
1'
0"
1(
0$
b10000 #
1!
#2030
b110000 #
0!
#2035
b110010 #
1!
#2040
b10100 #
0!
#2045
0"
0'
0(
1$
b100000 #
1!
#2050
b10100 #
0!
#2055
0"
1'
1(
0$
b10110 #
1!
#2060
0"
0'
0(
1$
b10 #
0!
#2065
b10010 #
1!
#2070
b110 #
0!
#2075
0"
1'
1(
0$
b110100 #
1!
#2080
b110010 #
0!
#2085
0'
0(
b1000 #
1!
#2090
1'
0"
1(
b10 #
0!
#2095
0"
0'
0(
1$
b110100 #
1!
#2100
0"
1%
1&
b1 #
0!
#2105
1'
0"
0%
1(
0&
0$
b110110 #
1!
#2110
0"
0'
0(
1$
b110 #
0!
#2115
0"
1'
1(
0$
b100100 #
1!
#2120
b110010 #
0!
#2125
b110110 #
1!
#2130
b110010 #
0!
#2135
b10110 #
1!
#2140
0"
0'
0(
1$
b100010 #
0!
#2145
b110000 #
1!
#2150
b10 #
0!
#2155
0"
1%
1&
b1 #
1!
#2160
0"
0%
0&
b1000 #
0!
#2165
b10110 #
1!
#2170
b10010 #
0!
#2175
b100110 #
1!
#2180
0"
1'
1(
0$
b10110 #
0!
#2185
0"
0'
0(
1$
b10010 #
1!
#2190
0"
1'
1(
0$
b100 #
0!
#2195
0"
0'
0(
1$
b100110 #
1!
#2200
b10000 #
0!
#2205
0"
1'
1(
0$
b100000 #
1!
#2210
b110010 #
0!
#2215
b100 #
1!
#2220
0"
0'
0(
1$
b10100 #
0!
#2225
0"
1'
1(
0$
b100100 #
1!
#2230
0!
#2235
b110 #
1!
#2240
0"
0'
0(
1$
b10110 #
0!
#2245
0"
0'
0$
b1000 #
1!
#2250
1$
b10 #
0!
#2255
b110000 #
1!
#2260
b10 #
0!
#2265
0"
1'
1(
0$
b10100 #
1!
#2270
0"
0'
0(
1$
b1000 #
0!
#2275
0"
1'
1(
0$
b110010 #
1!
#2280
b100010 #
0!
#2285
0"
0'
0(
1$
b1000 #
1!
#2290
0"
1'
1(
0$
b110010 #
0!
#2295
0'
0"
1%
1&
0(
1$
b1 #
1!
#2300
0"
0%
0&
b10110 #
0!
#2305
0"
1'
1(
0$
b110 #
1!
#2310
b10000 #
0!
#2315
0'
0"
0(
b1000 #
1!
#2320
1$
b100 #
0!
#2325
1!
#2330
b110110 #
0!
#2335
0$
b1001 #
1!
#2340
1'
1(
b100010 #
0!
#2345
0"
0'
0(
1$
b10010 #
1!
#2350
b10000 #
0!
#2355
b1000 #
1!
#2360
1'
0"
1(
0$
b10110 #
0!
#2365
b110010 #
1!
#2370
0"
0'
0(
1$
b10110 #
0!
#2375
0"
1'
1(
0$
b100 #
1!
#2380
0'
0"
1%
1&
0(
1$
b1 #
0!
#2385
1'
0"
0%
1(
0&
0$
b10 #
1!
#2390
b110 #
0!
#2395
b100 #
1!
#2400
b110100 #
0!
#2405
0"
0'
0(
1$
b100000 #
1!
#2410
0"
1'
1(
0$
b110110 #
0!
#2415
0'
0"
1%
0(
1&
1$
b1001 #
1!
#2420
1'
0"
0%
0&
1(
0$
b10010 #
0!
#2425
0"
0'
0(
1$
b100010 #
1!
#2430
0"
1%
1&
b1001 #
0!
#2435
0"
0%
0&
b10100 #
1!
#2440
b100110 #
0!
#2445
0"
1'
1(
0$
b10100 #
1!
#2450
b100000 #
0!
#2455
0"
0'
0(
1$
1!
#2460
0"
1%
1&
b1001 #
0!
#2465
0"
0%
0&
b110000 #
1!
#2470
0"
1%
1&
b1 #
0!
#2475
0"
0%
0&
b110110 #
1!
#2480
b100010 #
0!
#2485
0"
1'
1(
0$
1!
#2490
b110000 #
0!
#2495
b100100 #
1!
#2500
0"
0'
0(
1$
b110110 #
0!
#2505
0"
1'
1(
0$
b100110 #
1!
#2510
b100 #
0!
#2515
0"
0'
0(
1$
b110 #
1!
#2520
0!
#2525
b110100 #
1!
#2530
b1000 #
0!
#2535
0$
b1 #
1!
#2540
b1001 #
0!
#2545
1'
1(
b100000 #
1!
#2550
b10110 #
0!
#2555
b100100 #
1!
#2560
0"
0'
0(
1$
b110000 #
0!
#2565
0"
1%
1&
b1001 #
1!
#2570
0"
0%
0&
b10110 #
0!
#2575
0"
0'
0$
b1 #
1!
#2580
1'
1(
b110010 #
0!
#2585
b100100 #
1!
#2590
0'
0"
1%
0(
1&
1$
b1 #
0!
#2595
0"
0%
0&
b1000 #
1!
#2600
1'
0"
1(
0$
b10 #
0!
#2605
b110100 #
1!
#2610
b10010 #
0!
#2615
b110 #
1!
#2620
0"
0'
0(
1$
b100000 #
0!
#2625
1'
0"
1(
0$
b100 #
1!
#2630
b110110 #
0!
#2635
0'
0(
b1000 #
1!
#2640
1$
b100110 #
0!
#2645
0"
0'
0$
b1 #
1!
#2650
1'
1(
b100100 #
0!
#2655
b110010 #
1!
#2660
0'
0(
b1 #
0!
#2665
1'
0"
1(
b10010 #
1!
#2670
b10 #
0!
#2675
b100 #
1!
#2680
b10100 #
0!
#2685
0"
0'
0(
1$
b1000 #
1!
#2690
0"
1'
1(
0$
b100100 #
0!
#2695
b10 #
1!
#2700
0"
0'
0(
1$
0!
#2705
b100010 #
1!
#2710
0"
1'
1(
0$
b100 #
0!
#2715
0'
0"
0(
b1001 #
1!
#2720
1'
1(
b110100 #
0!
#2725
0"
0'
0(
1$
b10100 #
1!
#2730
b100000 #
0!
#2735
0"
1'
1(
0$
b10100 #
1!
#2740
b100000 #
0!
#2745
0'
0"
1%
1&
0(
1$
b1 #
1!
#2750
0"
0%
0&
b110110 #
0!
#2755
0"
1'
1(
0$
1!
#2760
0"
0'
0(
1$
b110010 #
0!
#2765
b110000 #
1!
#2770
0"
1'
1(
0$
0!
#2775
b10 #
1!
#2780
0"
0'
0(
1$
b100000 #
0!
#2785
1'
0"
1(
0$
b10 #
1!
#2790
0'
0"
0(
b1 #
0!
#2795
1'
1(
b100100 #
1!
#2800
b110000 #
0!
#2805
0'
0(
b1001 #
1!
#2810
1'
1(
b100000 #
0!
#2815
0"
0'
0(
1$
b110110 #
1!
#2820
0"
1'
1(
0$
b100010 #
0!
#2825
0"
0'
0(
1$
b10010 #
1!
#2830
b10100 #
0!
#2835
0"
0'
0$
b1000 #
1!
#2840
1'
0"
1(
b10010 #
0!
#2845
0'
0"
0(
b1 #
1!
#2850
b1001 #
0!
#2855
1$
b100100 #
1!
#2860
0"
1'
1(
0$
b10000 #
0!
#2865
b110110 #
1!
#2870
0!
#2875
0"
0'
0(
1$
b10010 #
1!
#2880
b10000 #
0!
#2885
0"
1'
1(
0$
b100100 #
1!
#2890
0"
0'
0(
1$
b10000 #
0!
#2895
0"
1'
1(
0$
b10010 #
1!
#2900
b110010 #
0!
#2905
b100110 #
1!
#2910
0'
0"
0(
b1000 #
0!
#2915
1$
b10110 #
1!
#2920
0!
#2925
0"
1'
1(
0$
b10100 #
1!
#2930
0"
0'
0(
1$
b110100 #
0!
#2935
b100100 #
1!
#2940
0"
1'
1(
0$
b110010 #
0!
#2945
b10 #
1!
#2950
b110010 #
0!
#2955
1!
#2960
0'
0(
b1000 #
0!
#2965
1$
b110000 #
1!
#2970
0!
#2975
0"
1'
1(
0$
b110110 #
1!
#2980
0'
0"
1%
0(
1&
1$
b1 #
0!
#2985
0"
0%
0&
b10010 #
1!
#2990
b100110 #
0!
#2995
0"
1'
1(
0$
b110010 #
1!
#3000
b10 #
0!
