wave.vcd
$date
	Fri May 29 13:47:05 2026
$end
$version
	Icarus Verilog
$end
$timescale
	1ps
$end
$scope module tb $end
$scope module stim1 $end
$var wire 1 ! clk $end
$upscope $end
$upscope $end
$scope module tb $end
$var wire 1 " tb_mismatch $end
$upscope $end
$scope module tb $end
$var reg 1 ! clk $end
$upscope $end
$scope module tb $end
$var wire 1 # L $end
$upscope $end
$scope module tb $end
$var wire 1 $ q_in $end
$upscope $end
$scope module tb $end
$var wire 1 % r_in $end
$upscope $end
$scope module tb $end
$var wire 1 & Q_ref $end
$upscope $end
$scope module tb $end
$var wire 1 ' Q_dut $end
$upscope $end
$enddefinitions $end
$comment Show the parameter values. $end
$dumpall
$end
#0
$dumpvars
0'
0&
x%
x$
x#
0"
0!
$end
#5
0"
x&
x'
1#
0%
0$
1!
#10
0#
1$
0!
#15
0"
1'
1&
1!
#20
1%
0!
#25
1#
0%
1!
#30
0!
#35
0"
0'
0&
1!
#40
0#
1%
0$
0!
#45
0%
1$
1!
#50
1#
0!
#55
1%
0$
1!
#60
0%
1$
0!
#65
1!
#70
0$
0!
#75
0#
1$
1!
#80
1#
1%
0$
0!
#85
0"
1&
1'
0%
1$
1!
#90
0#
1%
0$
0!
#95
0"
0'
0&
1#
0%
1$
1!
#100
1%
0!
#105
0"
1&
1'
0#
0$
1!
#110
1#
1$
0!
#115
0#
0$
1!
#120
1#
0!
#125
0#
0%
1!
#130
1#
1$
0!
#135
0"
0'
0&
0$
1!
#140
1$
0!
#145
1!
#150
0!
#155
0#
1%
1!
#160
0$
0!
#165
0%
1!
#170
0!
#175
1%
1!
#180
1#
0%
1$
0!
#185
1%
0$
1!
#190
0#
1$
0!
#195
0"
1'
1&
1#
0%
1!
#200
0#
1%
0!
#205
1!
#210
1#
0%
0!
#215
0"
0'
0&
0#
1%
0$
1!
#220
1#
0!
#225
0"
1&
1'
0%
1$
1!
#230
1%
0!
#235
0#
1!
#240
0$
0!
#245
0"
0&
0'
1!
#250
1#
0%
0!
#255
0#
1%
1!
#260
0!
#265
0%
1$
1!
#270
0$
0!
#275
1!
#280
1$
0!
#285
0"
1&
1'
1%
1!
#290
1#
0$
0!
#295
1!
#300
0!
#305
0%
1!
#310
0#
1%
0!
#315
0"
0'
0&
1$
1!
#320
0%
0!
#325
0"
1&
1'
1#
1!
#330
1%
0!
#335
0#
1!
#340
0$
0!
#345
0"
0&
0'
1#
1!
#350
0%
1$
0!
#355
0#
1!
#360
0!
#365
0"
1&
1'
1%
0$
1!
#370
1#
0%
0!
#375
0"
0'
0&
1%
1$
1!
#380
0!
#385
0"
1&
1'
0#
0%
0$
1!
#390
1#
1%
1$
0!
#395
1!
#400
0%
0$
0!
#405
0"
0&
0'
0#
1%
1$
1!
#410
0%
0!
#415
0"
1'
1&
1!
#420
0$
0!
#425
0"
0&
0'
1#
1%
1$
1!
#430
0#
0%
0!
#435
0"
1'
1&
1#
1%
0$
1!
#440
0%
0!
#445
0"
0&
0'
0#
1%
1!
#450
0%
0!
#455
1#
1%
1$
1!
#460
0%
0!
#465
0#
1%
0$
1!
#470
1#
0!
#475
0"
1'
1&
0%
1$
1!
#480
0#
0!
#485
1#
1%
1!
#490
0#
0!
#495
1#
0%
1!
#500
0#
0$
0!
#505
0"
0&
0'
1%
1$
1!
#510
0%
0!
#515
0"
1'
1&
1#
1%
1!
#520
0#
0$
0!
#525
0"
0&
0'
0%
1!
#530
1#
1%
0!
#535
0"
1'
1&
1!
#540
0%
0!
#545
0"
0&
0'
0#
1%
1!
#550
1#
0!
#555
0"
1'
1&
0#
1$
1!
#560
0!
#565
1#
1!
#570
0#
0!
#575
1#
1!
#580
0%
0$
0!
#585
0"
0&
0'
1%
1$
1!
#590
0#
0!
#595
0"
1'
1&
1#
0$
1!
#600
0#
0!
#605
0"
0&
0'
0%
1$
1!
#610
1#
0!
#615
0#
1%
0$
1!
#620
1#
0%
1$
0!
#625
1!
#630
1%
0!
#635
0"
1'
1&
0#
0%
1!
#640
1#
0$
0!
#645
0"
0&
0'
0#
1!
#650
1%
0!
#655
1$
1!
#660
1#
0$
0!
#665
0"
1&
1'
0%
1!
#670
0#
1%
0!
#675
0"
0'
0&
1#
0%
1$
1!
#680
0#
1%
0!
#685
0"
1&
1'
1#
0$
1!
#690
0!
#695
1$
1!
#700
0#
0$
0!
#705
0"
0&
0'
1#
1!
#710
0#
0%
0!
#715
1$
1!
#720
0$
0!
#725
1#
1!
#730
0#
1%
1$
0!
#735
0"
1'
1&
1#
0%
0$
1!
#740
0#
1$
0!
#745
1%
1!
#750
1#
0%
0!
#755
0"
0'
0&
0#
1!
#760
1#
0!
#765
1%
0$
1!
#770
0#
0!
#775
1#
1!
#780
0%
1$
0!
#785
1%
0$
1!
#790
0%
0!
#795
1%
1$
1!
#800
0#
0%
0!
#805
0"
1&
1'
1#
0$
1!
#810
0#
0!
#815
0"
0'
0&
1!
#820
1#
1$
0!
#825
1%
1!
#830
0$
0!
#835
0"
1'
1&
0#
0%
1!
#840
1#
0!
#845
0"
0&
0'
1$
1!
#850
0#
0!
#855
0"
1'
1&
1#
0$
1!
#860
1%
0!
#865
0#
1!
#870
1#
0%
1$
0!
#875
0"
0'
0&
1%
0$
1!
#880
0#
0%
0!
#885
1%
1$
1!
#890
0$
0!
#895
1#
1!
#900
0#
0!
#905
1#
0%
1$
1!
#910
0#
1%
0$
0!
#915
0%
1$
1!
#920
1#
1%
0!
#925
0"
1&
1'
0$
1!
#930
0#
0%
0!
#935
0"
0'
0&
1#
1%
1!
#940
0!
#945
0"
1&
1'
0%
1$
1!
#950
0$
0!
#955
0"
0'
0&
1%
1!
#960
0#
0%
0!
#965
1#
1%
1!
#970
0#
1$
0!
#975
0"
1'
1&
1#
1!
#980
0#
0%
0!
#985
1%
0$
1!
#990
0%
1$
0!
#995
1#
1%
1!
