wave.vcd
$date
	Sat May 30 23:02:49 2026
$end
$version
	Icarus Verilog
$end
$timescale
	1ps
$end
$scope module tb $end
$scope module stim1 $end
$var wire 1 ! clk $end
$upscope $end
$upscope $end
$scope module tb $end
$var wire 1 " tb_mismatch $end
$upscope $end
$scope module tb $end
$var wire 1 # c $end
$upscope $end
$scope module tb $end
$var wire 1 $ d $end
$upscope $end
$scope module tb $end
$var wire 4 % mux_in_ref [3:0] $end
$upscope $end
$scope module tb $end
$var wire 4 & mux_in_dut [3:0] $end
$upscope $end
$enddefinitions $end
$comment Show the parameter values. $end
$dumpall
$end
#0
$dumpvars
b100 &
b100 %
0$
0#
0"
0!
$end
#5
1!
#10
0!
#15
1!
#20
0!
#25
0"
b1 %
b1 &
1$
1!
#30
0!
#35
0"
b101 %
b101 &
1#
0$
1!
#40
0!
#45
0"
b1001 %
b1001 &
1$
1!
#50
0!
#55
0"
b100 %
b100 &
0#
0$
1!
#60
0"
b1 %
b1 &
1$
0!
#65
1!
#70
0"
b1001 %
b1001 &
1#
0!
#75
0"
b1 %
b1 &
0#
1!
#80
0!
#85
1!
#90
0"
b101 %
b101 &
1#
0$
0!
#95
0"
b1 %
b1 &
0#
1$
1!
#100
0!
#105
0"
b101 %
b101 &
1#
0$
1!
#110
0"
b1 %
b1 &
0#
1$
0!
#115
1!
#120
0"
b100 %
b100 &
0$
0!
#125
0"
b1 %
b1 &
1$
1!
#130
0"
b101 %
b101 &
1#
0$
0!
#135
0"
b1 %
b1 &
0#
1$
1!
#140
0"
b101 %
b101 &
1#
0$
0!
#145
0"
b1 %
b1 &
0#
1$
1!
#150
0"
b1001 %
b1001 &
1#
0!
#155
0"
b101 %
b101 &
0$
1!
#160
0"
b1001 %
b1001 &
1$
0!
#165
0"
b101 %
b101 &
0$
1!
#170
0!
#175
0"
b100 %
b100 &
0#
1!
#180
0"
b1 %
b1 &
1$
0!
#185
0"
b100 %
b100 &
0$
1!
#190
0"
b1 %
b1 &
1$
0!
#195
1!
#200
0!
#205
0"
b1001 %
b1001 &
1#
1!
#210
0"
b101 %
b101 &
0$
0!
#215
0"
b100 %
b100 &
0#
1!
#220
0!
#225
0"
b101 %
b101 &
1#
1!
#230
0"
b1 %
b1 &
0#
1$
0!
#235
0"
b101 %
b101 &
1#
0$
1!
#240
0"
b1001 %
b1001 &
1$
0!
#245
0"
b1 %
b1 &
0#
1!
#250
0"
b1001 %
b1001 &
1#
0!
#255
1!
#260
0"
b1 %
b1 &
0#
0!
#265
0"
b101 %
b101 &
1#
0$
1!
#270
0!
#275
0"
b1 %
b1 &
0#
1$
1!
#280
0"
b1001 %
b1001 &
1#
0!
#285
1!
#290
0"
b101 %
b101 &
0$
0!
#295
1!
#300
0"
b100 %
b100 &
0#
0!
