wave.vcd
$date
	Wed May 27 17:05:14 2026
$end
$version
	Icarus Verilog
$end
$timescale
	1ps
$end
$scope module tb $end
$scope module stim1 $end
$var wire 1 ! clk $end
$upscope $end
$upscope $end
$scope module tb $end
$var wire 1 " tb_mismatch $end
$upscope $end
$scope module tb $end
$var reg 1 ! clk $end
$upscope $end
$scope module tb $end
$var wire 1 # areset $end
$upscope $end
$scope module tb $end
$var wire 1 $ predict_valid $end
$upscope $end
$scope module tb $end
$var wire 7 % predict_pc [6:0] $end
$upscope $end
$scope module tb $end
$var wire 1 & train_valid $end
$upscope $end
$scope module tb $end
$var wire 1 ' train_taken $end
$upscope $end
$scope module tb $end
$var wire 1 ( train_mispredicted $end
$upscope $end
$scope module tb $end
$var wire 7 ) train_history [6:0] $end
$upscope $end
$scope module tb $end
$var wire 7 * train_pc [6:0] $end
$upscope $end
$scope module tb $end
$var wire 1 + predict_taken_ref $end
$upscope $end
$scope module tb $end
$var wire 1 , predict_taken_dut $end
$upscope $end
$scope module tb $end
$var wire 7 - predict_history_ref [6:0] $end
$upscope $end
$scope module tb $end
$var wire 7 . predict_history_dut [6:0] $end
$upscope $end
$enddefinitions $end
$comment Show the parameter values. $end
$dumpall
$end
#0
$dumpvars
bx .
bx -
x,
x+
bx *
bx )
x(
x'
x&
bx %
x$
x#
0"
0!
$end
#5
b0 .
1#
1!
#10
0!
#15
0+
0,
0"
1'
b100 *
b1111111 )
1(
b100 %
b0 -
1&
1$
0#
1!
#20
0!
#25
1+
0"
1,
b1111111 -
b1111111 .
1!
#30
0!
#35
1!
#40
0!
#45
1!
#50
0!
#55
1!
#60
0!
#65
1!
#70
0,
b0 .
0"
0+
b0 -
1#
0!
#75
1!
#80
0!
#85
0#
1!
#90
0!
#95
0"
x'
x(
bx *
bx )
b1010 %
b0 .
0&
1$
1#
1!
#100
0#
0!
#105
1'
0(
b0 )
b1010 *
1&
1!
#110
0!
#115
1+
b10 )
1,
1!
#120
0!
#125
0+
0"
0,
b1 -
x'
x(
bx )
bx *
b1 .
0&
1!
#130
0!
#135
1+
0"
b10 -
1,
b10 .
1!
#140
0!
#145
0+
0"
0,
b101 -
b101 .
1!
#150
0!
#155
0"
b1010 -
b1010 .
1!
#160
0!
#165
0"
b10100 -
0'
0(
b0 )
b1010 *
b10100 .
1&
1!
#170
0!
#175
0"
b101000 -
x'
x(
bx )
bx *
b101000 .
0&
1!
#180
0!
#185
0"
b1010000 -
b1010000 .
1!
#190
0!
#195
0"
b100000 -
b100000 .
1!
#200
0!
#205
0"
b1000000 -
b1000000 .
1!
#210
0!
#215
0"
b0 -
b0 .
1!
#220
0!
#225
1!
#230
0!
#235
1!
#240
0!
#245
1!
#250
0!
#255
1!
#260
0!
#265
1#
1!
#270
0#
0!
#275
1!
#280
0!
#285
1'
1(
b0 )
b1010 *
1&
1!
#290
0!
#295
0"
0+
b1 -
x'
x(
bx )
bx *
0,
b1 .
0&
1!
#300
0!
#305
0"
b10 -
0'
1(
b10000 )
b1010 *
b10 .
1&
1!
#310
0!
#315
0"
b100000 -
x'
x(
bx )
bx *
b100000 .
0&
1!
#320
0!
#325
0"
b1000000 -
b1000000 .
1!
#330
0!
#335
1+
0"
1,
b0 -
b0 .
1!
#340
0!
#345
0+
0"
b1 -
0,
b1 .
1!
#350
0!
#355
0"
b10 -
0'
1(
b0 )
b1010 *
b10 .
1&
1!
#360
0!
#365
0"
b0 -
x'
x(
bx )
bx *
b0 .
0&
1!
#370
0!
#375
0'
1(
b100000 )
b1010 *
1&
1!
#380
0!
#385
0"
b1000000 -
x'
x(
bx )
bx *
b1000000 .
0&
1!
#390
0!
#395
0"
b0 -
b0 .
1!
#400
0!
#405
1!
#410
0!
#415
1!
#420
b11010 %
0!
#425
0"
x,
bx -
x+
bx %
1'
0(
b1101 )
b11000 *
0$
1&
1!
#430
b10010 )
b11001 *
0'
0!
#435
0+
0,
0"
b1110110 )
b1100110 %
b0 -
b1000011 *
1$
1!
#440
0"
x,
b1100 )
bx -
x+
bx %
b1111011 *
0$
0!
#445
0+
0,
0"
b10010 %
b0 -
x'
x(
bx )
bx *
1$
0&
1!
#450
b1111011 %
0'
0(
b1110111 )
b1111001 *
1&
0!
#455
0"
x,
b1110010 )
bx -
x+
bx %
b1100011 *
1'
0$
1!
#460
x'
x(
bx )
bx *
0&
0!
#465
0'
0(
b101101 )
b101111 *
1&
1!
#470
0+
0,
0"
b1010 )
b110001 %
b0 -
b11000 *
1'
1$
0!
#475
0"
x,
bx -
x+
bx %
x'
x(
bx )
bx *
0$
0&
1!
#480
0!
#485
0+
0,
0"
b1101011 %
b0 -
1'
0(
b1101011 )
b10100 *
1$
1&
1!
#490
b100101 %
x'
x(
bx )
bx *
0&
0!
#495
b111001 %
1'
0(
b100011 )
b110011 *
1&
1!
#500
b101 %
x'
x(
bx )
bx *
0&
0!
#505
0"
x,
bx -
x+
bx %
0$
1!
#510
0!
#515
1!
#520
0+
0,
0"
b1 %
b0 -
1$
0!
#525
b1011111 %
0'
0(
b101 )
b11100 *
1&
1!
#530
0"
x,
b111010 )
bx -
x+
bx %
b1110 *
1'
0$
0!
#535
b1110001 )
b1000101 *
0'
1!
#540
0+
0,
0"
b11 %
b0 -
x'
x(
bx )
bx *
1$
0&
0!
#545
b1010000 %
1'
0(
b1111000 )
b1100011 *
1&
1!
#550
0"
x,
b1011100 )
bx -
x+
bx %
b100111 *
0$
0!
#555
b1001001 )
b1100010 *
0'
1!
#560
b1010001 )
b110101 *
1'
0!
#565
0+
0,
0"
b111111 %
b0 -
x'
x(
bx )
bx *
1$
0&
1!
#570
0"
x,
bx -
x+
bx %
1'
0(
b111101 )
b11101 *
0$
1&
0!
#575
0+
0,
0"
b0 %
b0 -
x'
x(
bx )
bx *
1$
0&
1!
#580
0"
x,
bx -
x+
bx %
1'
0(
b1010011 )
b1000111 *
0$
1&
0!
#585
x'
x(
bx )
bx *
0&
1!
#590
1'
0(
b101010 )
b1111 *
1&
0!
#595
0+
0,
0"
b11100 %
b0 -
x'
x(
bx )
bx *
1$
0&
1!
#600
b1001100 %
0!
#605
b1011010 %
1'
0(
b101111 )
b101000 *
1&
1!
#610
0"
x,
b1000100 )
bx -
x+
bx %
b10111 *
0$
0!
#615
0+
0,
0"
b1100110 )
b11011 %
b0 -
b110010 *
1$
1!
#620
b1101101 )
b1100000 %
b1001010 *
0'
0!
#625
b110101 )
b1011011 %
b11001 *
1!
#630
b1000100 )
b1100 %
b1011110 *
0!
#635
b101 %
x'
x(
bx )
bx *
0&
1!
#640
b1010110 %
0!
#645
b1 %
1'
0(
b1010110 )
b110000 *
1&
1!
#650
b1010 )
b111011 %
b11001 *
0!
#655
0"
x,
bx -
x+
bx %
x'
x(
bx )
bx *
0$
0&
1!
#660
0!
#665
0+
0,
0"
b1100101 %
b0 -
0'
0(
b1011011 )
b10110 *
1$
1&
1!
#670
0"
x,
b1101101 )
bx -
x+
bx %
b1110110 *
0$
0!
#675
0+
0,
0"
b100100 %
b0 -
x'
x(
bx )
bx *
1$
0&
1!
#680
b1101 %
0!
#685
0"
x,
bx -
x+
bx %
0'
0(
b110100 )
b1011010 *
0$
1&
1!
#690
x'
x(
bx )
bx *
0&
0!
#695
1!
#700
1+
1,
0"
b1010011 %
b0 -
0'
0(
b101001 )
b111111 *
1$
1&
0!
#705
0+
0"
b1 -
0,
b110011 %
x'
x(
bx )
bx *
b1 .
0&
1!
#710
0"
x,
bx -
x+
bx %
0$
0!
#715
0+
0,
0"
b1001100 %
b1 -
1$
1!
#720
0"
x,
bx -
x+
bx %
0'
0(
b11010 )
b1110101 *
0$
1&
0!
#725
0+
0,
0"
b10110 )
b110000 %
b1 -
b1001101 *
1'
1$
1!
#730
b1001111 %
x'
x(
bx )
bx *
0&
0!
#735
0"
b10 -
b111 %
b10 .
1!
#740
0"
x,
bx -
x+
bx %
0$
0!
#745
0+
0,
0"
b10101 %
b10 -
0'
0(
b1111010 )
b1011110 *
1$
1&
1!
#750
0"
x,
b100001 )
bx -
x+
bx %
b1000101 *
1'
0$
0!
#755
0+
0,
0"
b1001011 %
b10 -
x'
x(
bx )
bx *
1$
0&
1!
#760
0"
x,
bx -
x+
bx %
0'
0(
b1000001 )
b1010 *
0$
1&
0!
#765
0+
0,
0"
b1011010 %
b10 -
x'
x(
bx )
bx *
1$
0&
1!
#770
0"
x,
bx -
x+
bx %
0$
0!
#775
0+
0,
0"
b1000000 %
b10 -
1$
1!
#780
b1011100 %
0!
#785
0"
b100 -
b1011010 %
b100 .
1!
#790
0"
1+
1,
b1111111 %
0!
#795
0"
x,
bx -
x+
bx %
b1001 .
0$
1!
#800
1'
0(
b1000111 )
b1011010 *
1&
0!
#805
0+
0,
0"
b1001110 %
b1001 -
x'
x(
bx )
bx *
1$
0&
1!
#810
b1101001 %
0!
#815
0"
b10010 -
b1001000 %
b10010 .
1!
#820
b10000 %
0!
#825
0"
b100100 -
b1010010 %
b100100 .
1!
#830
b1010100 %
0'
0(
b1110 )
b101000 *
1&
0!
#835
0"
b1001000 -
b1101111 )
b1111 %
b10 *
1'
b1001000 .
1!
#840
0"
x,
bx -
x+
bx %
x'
x(
bx )
bx *
0$
0&
0!
#845
0+
0,
0"
b1011111 %
b1001000 -
1'
0(
b1000 )
b1011010 *
1$
1&
1!
#850
b10010 )
b1000000 %
b1100110 *
0!
#855
0"
x,
b1001011 )
bx -
x+
bx %
b1011 *
0'
b10000 .
0$
1!
#860
x'
x(
bx )
bx *
0&
0!
#865
0+
0,
0"
b1001110 %
b10000 -
1$
1!
#870
0"
x,
bx -
x+
bx %
0'
0(
b111011 )
b10000 *
0$
1&
0!
#875
1+
1,
0"
b1010110 )
b1110100 %
b10000 -
b1010100 *
1'
1$
1!
#880
0"
x,
bx -
x+
bx %
x'
x(
bx )
bx *
0$
0&
0!
#885
1!
#890
0+
0,
0"
b1001 %
b10000 -
0'
0(
b1100101 )
b1110 *
1$
1&
0!
#895
0"
b100000 -
b1 )
b111 %
b1001010 *
1'
b100000 .
1!
#900
b100001 )
b101010 %
b1001001 *
0!
#905
0"
x,
bx -
x+
bx %
x'
x(
bx )
bx *
b1000000 .
0$
0&
1!
#910
0!
#915
0'
0(
b1010101 )
b101100 *
1&
1!
#920
0+
0,
0"
b1110101 )
b10101 %
b1000000 -
b1001010 *
1'
1$
0!
#925
0"
b0 -
b100 )
b10001 %
b1001 *
b0 .
1!
#930
0"
1+
1,
b111001 )
b1010011 %
b111001 *
0!
#935
0+
0"
0,
b1 -
b1001001 )
b1011101 %
b1110110 *
b1 .
1!
#940
0"
x,
b101010 )
bx -
x+
bx %
b101000 *
0'
0$
0!
#945
b11 )
b10001 *
1!
#950
x'
x(
bx )
bx *
0&
0!
#955
0+
0,
0"
b1010101 %
b1 -
1'
0(
b110 )
b11011 *
1$
1&
1!
#960
b1001011 %
x'
x(
bx )
bx *
0&
0!
#965
0"
b10 -
b1010100 %
b10 .
1!
#970
0"
x,
bx -
x+
bx %
0$
0!
#975
1!
#980
0'
0(
b1100001 )
b1000101 *
1&
0!
#985
0+
0,
0"
b1001001 )
b1110111 %
b10 -
b10000 *
1'
1$
1!
#990
b1000001 )
b1100101 %
b1001001 *
0'
0!
#995
0"
b100 -
b1110001 %
x'
x(
bx )
bx *
b100 .
0&
1!
#1000
0"
x,
bx -
x+
bx %
0$
0!
#1005
1!
#1010
0!
#1015
0+
0,
0"
b1001 %
b100 -
1$
1!
#1020
0"
x,
bx -
x+
bx %
0'
0(
b1101 )
b1110111 *
0$
1&
0!
#1025
b11110 )
b11110 *
1!
#1030
1(
b1111 )
1'
0!
#1035
0+
0"
0,
0(
b11101 )
b10100 %
b11111 -
b1111000 *
b11111 .
1$
1!
#1040
b1001111 %
x'
x(
bx )
bx *
0&
0!
#1045
0"
b111110 -
b111100 %
0'
0(
b1010010 )
b111011 *
b111110 .
1&
1!
#1050
0"
x,
bx -
x+
bx %
b1100011 *
0$
0!
#1055
x'
x(
bx )
bx *
0&
1!
#1060
1'
0(
b1101010 )
b1000101 *
1&
0!
#1065
0+
0,
0"
b1011110 %
b111110 -
x'
x(
bx )
bx *
1$
0&
1!
#1070
0"
x,
bx -
x+
bx %
0$
0!
#1075
0+
0,
0"
b1111 %
b111110 -
0'
0(
b110010 )
b1001 *
1$
1&
1!
#1080
0"
1+
1,
b10100 )
b111110 %
b10010 *
0!
#1085
0"
x,
b1011100 )
bx -
x+
bx %
b1010010 *
1'
b1111101 .
0$
1!
#1090
x'
x(
bx )
bx *
0&
0!
#1095
0+
0,
0"
b1110010 %
b1111101 -
1$
1!
#1100
b1011011 %
1'
0(
b1101010 )
b1000001 *
1&
0!
#1105
0"
x,
bx -
x+
bx %
x'
x(
bx )
bx *
b1111010 .
0$
0&
1!
#1110
0+
0,
0"
b101101 %
b1111010 -
1$
0!
#1115
0"
b1110100 -
b110010 %
0'
0(
b111001 )
b1110010 *
b1110100 .
1&
1!
#1120
0"
x,
bx -
x+
bx %
x'
x(
bx )
bx *
0$
0&
0!
#1125
0+
0,
0"
b10010 %
b1110100 -
1$
1!
#1130
b1101 %
0'
0(
b100000 )
b110110 *
1&
0!
#1135
0"
b1101000 -
b1100011 )
b110111 %
b1100100 *
1'
b1101000 .
1!
#1140
0"
1+
1,
b1111100 %
x'
x(
bx )
bx *
0&
0!
#1145
0"
x,
bx -
x+
bx %
b1010001 .
0$
1!
#1150
0+
0,
0"
b1110 %
b1010001 -
1$
0!
#1155
0"
b100010 -
b1001011 %
b100010 .
1!
#1160
b1000011 %
1'
0(
b100110 )
b1110110 *
1&
0!
#1165
0"
b1000100 -
b111110 %
x'
x(
bx )
bx *
b1000100 .
0&
1!
#1170
b110001 %
0!
#1175
1+
0"
1,
b1000 -
b11010 %
1'
0(
b10000 )
b1110011 *
b1000 .
1&
1!
#1180
0"
0+
0,
b1110111 )
b1010010 %
b11010 *
0'
0!
#1185
0"
b10000 -
b101100 %
x'
x(
bx )
bx *
b10000 .
0&
1!
#1190
0"
x,
bx -
x+
bx %
0$
0!
#1195
0+
0,
0"
b101101 %
b10000 -
1$
1!
#1200
b1111010 %
0!
#1205
0"
b100000 -
b1010110 %
0'
0(
b1011 )
b1111010 *
b100000 .
1&
1!
#1210
0"
x,
b0 )
bx -
x+
bx %
b1110110 *
1'
0$
0!
#1215
b110000 )
b110001 *
0'
1!
#1220
x'
x(
bx )
bx *
0&
0!
#1225
0+
0,
0"
b1010111 %
b100000 -
1$
1!
#1230
b11011 %
0'
0(
b10101 )
b1111000 *
1&
0!
#1235
0"
x,
bx -
x+
bx %
x'
x(
bx )
bx *
b1000000 .
0$
0&
1!
#1240
0+
0,
0"
b111110 %
b1000000 -
1$
0!
#1245
0"
x,
bx -
x+
bx %
1'
0(
b1101110 )
b11101 *
b0 .
0$
1&
1!
#1250
0+
0,
0"
b1101000 )
b1011100 %
b0 -
b1110101 *
0'
1$
0!
#1255
0"
x,
bx -
x+
bx %
x'
x(
bx )
bx *
0$
0&
1!
#1260
0+
0,
0"
b1011110 %
b0 -
0'
0(
b1110 )
b11111 *
1$
1&
0!
#1265
0"
x,
bx -
x+
bx %
x'
x(
bx )
bx *
0$
0&
1!
#1270
1+
1,
0"
b1101000 %
b0 -
1'
0(
b101111 )
b10110 *
1$
1&
0!
#1275
0"
x,
b10011 )
bx -
x+
bx %
b1101110 *
0'
b1 .
0$
1!
#1280
b1010001 )
b1011001 *
0!
#1285
b111010 )
b100110 *
1!
#1290
x'
x(
bx )
bx *
0&
0!
#1295
0'
0(
b1011001 )
b11111 *
1&
1!
#1300
b1001001 )
b1111011 *
0!
#1305
0+
0,
0"
b1011011 )
b1101000 %
b1 -
b1101011 *
1'
1$
1!
#1310
b1001111 %
x'
x(
bx )
bx *
0&
0!
#1315
0"
x,
bx -
x+
bx %
0'
0(
b1101010 )
b1101111 *
b10 .
0$
1&
1!
#1320
x'
x(
bx )
bx *
0&
0!
#1325
0+
0,
0"
b1000010 %
b10 -
1$
1!
#1330
0"
x,
bx -
x+
bx %
1'
0(
b1111001 )
b1001000 *
0$
1&
0!
#1335
0+
0,
0"
b1110 )
b100011 %
b10 -
b101110 *
1$
1!
#1340
b1 %
x'
x(
bx )
bx *
0&
0!
#1345
0"
x,
bx -
x+
bx %
0'
0(
b111001 )
b10110 *
b100 .
0$
1&
1!
#1350
0+
0,
0"
b1011111 %
b100 -
x'
x(
bx )
bx *
1$
0&
0!
#1355
0"
x,
bx -
x+
bx %
0'
0(
b10 )
b1110 *
b1000 .
0$
1&
1!
#1360
1+
1,
0"
b1001110 )
b1111100 %
b1000 -
b1000001 *
1$
0!
#1365
0"
b10001 -
b101000 %
x'
x(
bx )
bx *
b10001 .
0&
1!
#1370
0"
x,
bx -
x+
bx %
1'
0(
b1101000 )
b101011 *
0$
1&
0!
#1375
b1001100 )
b1111101 *
0'
1!
#1380
0+
0,
0"
b1010011 %
b10001 -
x'
x(
bx )
bx *
1$
0&
0!
#1385
0"
x,
bx -
x+
bx %
b100010 .
0$
1!
#1390
0+
0,
0"
b101000 %
b100010 -
1$
0!
#1395
0"
x,
bx -
x+
bx %
b1000100 .
0$
1!
#1400
1+
1,
0"
b10111 %
b1000100 -
0'
0(
b1110101 )
b111101 *
1$
1&
0!
#1405
0"
x,
bx -
x+
bx %
x'
x(
bx )
bx *
b1001 .
0$
0&
1!
#1410
0+
0,
0"
b100 %
b1001 -
1$
0!
#1415
0"
x,
bx -
x+
bx %
b10010 .
0$
1!
#1420
0'
0(
b110111 )
b10101 *
1&
0!
#1425
b1011001 )
b11000 *
1'
1!
#1430
0+
0,
0"
b111011 %
b10010 -
x'
x(
bx )
bx *
1$
0&
0!
#1435
1+
0"
1,
b100100 -
b1010010 %
b100100 .
1!
#1440
0"
x,
bx -
x+
bx %
1'
0(
b1010000 )
b1101010 *
0$
1&
0!
#1445
x'
x(
bx )
bx *
0&
1!
#1450
0+
0,
0"
b10001 %
b100100 -
1'
0(
b1111100 )
b1100010 *
1$
1&
0!
#1455
0"
b1001000 -
b101 %
x'
x(
bx )
bx *
b1001000 .
0&
1!
#1460
b1000111 %
0!
#1465
1+
0"
b10000 -
1,
b110101 %
b10000 .
1!
#1470
0"
0+
0,
b101000 %
0!
#1475
0"
b100000 -
b1101000 %
b100000 .
1!
#1480
0"
x,
bx -
x+
bx %
0$
0!
#1485
1'
0(
b1101011 )
b1110000 *
1&
1!
#1490
x'
x(
bx )
bx *
0&
0!
#1495
0+
0,
0"
b100101 %
b100000 -
1'
0(
b101101 )
b1000110 *
1$
1&
1!
#1500
b1001111 )
b1001 %
b1001 *
0'
0!
#1505
0"
x,
b0 )
bx -
x+
bx %
b110 *
1'
b1000000 .
0$
1!
#1510
0+
0,
0"
b1111110 %
b1000000 -
x'
x(
bx )
bx *
1$
0&
0!
#1515
0"
x,
bx -
x+
bx %
b0 .
0$
1!
#1520
0+
0,
0"
b1010111 %
b0 -
1$
0!
#1525
0"
x,
bx -
x+
bx %
0$
1!
#1530
0'
0(
b1111011 )
b11100 *
1&
0!
#1535
x'
x(
bx )
bx *
0&
1!
#1540
0+
0,
0"
b10000 %
b0 -
1'
0(
b110101 )
b1111010 *
1$
1&
0!
#1545
0"
x,
b111111 )
bx -
x+
bx %
b100011 *
0$
1!
#1550
b1010110 )
b110100 *
0!
#1555
1+
1,
0"
b111010 %
b0 -
x'
x(
bx )
bx *
1$
0&
1!
#1560
0"
x,
bx -
x+
bx %
0$
0!
#1565
0+
0,
0"
b100001 %
b0 -
0'
0(
b11100 )
b1000001 *
1$
1&
1!
#1570
0"
x,
bx -
x+
bx %
x'
x(
bx )
bx *
0$
0&
0!
#1575
1'
0(
b11 )
b1001101 *
1&
1!
#1580
0+
0,
0"
b111110 )
b1101110 %
b0 -
b111111 *
0'
1$
0!
#1585
0"
x,
bx -
x+
bx %
x'
x(
bx )
bx *
0$
0&
1!
#1590
0!
#1595
1!
#1600
0+
0,
0"
b1010101 %
b0 -
1'
0(
b1101011 )
b1111110 *
1$
1&
0!
#1605
0"
x,
b10100 )
bx -
x+
bx %
b11 *
0$
1!
#1610
x'
x(
bx )
bx *
0&
0!
#1615
0+
0,
0"
b1100001 %
b0 -
1'
0(
b100 )
b11010 *
1$
1&
1!
#1620
b1100001 )
b110000 %
b1100011 *
0'
0!
#1625
0"
1+
1,
b1001001 )
b111010 %
b101110 *
1!
#1630
0"
x,
bx -
x+
bx %
x'
x(
bx )
bx *
0$
0&
0!
#1635
1!
#1640
0+
0,
0"
b10001 %
b0 -
1$
0!
#1645
b1110010 %
1!
#1650
b1001101 %
0'
0(
b1010011 )
b101000 *
1&
0!
#1655
0"
1+
1,
b111 )
b11110 %
b1010111 *
1'
1!
#1660
b1110000 )
b1101000 %
b1001011 *
0'
0!
#1665
0+
0"
b1 -
0,
b10010 )
b11100 %
b1100 *
b1 .
1!
#1670
0"
1+
1,
b10101 )
b110101 %
b1000011 *
0!
#1675
0+
0"
0,
b11 -
b1000110 %
x'
x(
bx )
bx *
b11 .
0&
1!
#1680
b1010 %
1'
0(
b1000011 )
b1000100 *
1&
0!
#1685
0"
x,
bx -
x+
bx %
x'
x(
bx )
bx *
b110 .
0$
0&
1!
#1690
1+
1,
0"
b10011 %
b110 -
1'
0(
b100011 )
b10111 *
1$
1&
0!
#1695
0"
x,
bx -
x+
bx %
x'
x(
bx )
bx *
b1101 .
0$
0&
1!
#1700
0+
0,
0"
b100110 %
b1101 -
1'
0(
b10 )
b110001 *
1$
1&
0!
#1705
0"
x,
b100100 )
bx -
x+
bx %
b11010 .
0$
1!
#1710
0+
0,
0"
b1010 %
b11010 -
x'
x(
bx )
bx *
1$
0&
0!
#1715
0"
b110100 -
b111001 %
b110100 .
1!
#1720
0"
1+
1,
b1010000 %
0!
#1725
0+
0"
b1101001 -
0,
b1110001 %
b1101001 .
1!
#1730
0"
x,
bx -
x+
bx %
0$
0!
#1735
0+
0,
0"
b1111000 %
b1101001 -
1$
1!
#1740
b1111001 %
0!
#1745
0"
x,
bx -
x+
bx %
1'
0(
b11011 )
b1100000 *
b1010010 .
0$
1&
1!
#1750
x'
x(
bx )
bx *
0&
0!
#1755
0+
0,
0"
b1010011 %
b1010010 -
1$
1!
#1760
0"
x,
bx -
x+
bx %
0$
0!
#1765
0+
0,
0"
b111001 %
b1010010 -
0'
1(
b101111 )
b1010101 *
1$
1&
1!
#1770
b1110101 %
x'
x(
bx )
bx *
0&
0!
#1775
0"
x,
bx -
x+
bx %
0'
0(
b1011000 )
b1111010 *
b100100 .
0$
1&
1!
#1780
0+
0,
0"
b1010100 )
b1110010 %
b100100 -
b1110000 *
1'
1$
0!
#1785
1+
0"
b1001000 -
1,
b1110111 %
x'
x(
bx )
bx *
b1001000 .
0&
1!
#1790
0"
x,
bx -
x+
bx %
1'
0(
b100000 )
b100000 *
0$
1&
0!
#1795
0+
0,
0"
b1000101 )
b1100101 %
b1001000 -
b1101111 *
1$
1!
#1800
b1110101 )
b101 %
b1010001 *
0'
0!
#1805
0"
x,
bx -
x+
bx %
x'
x(
bx )
bx *
b10000 .
0$
0&
1!
#1810
0+
0,
0"
b110001 %
b10000 -
0'
0(
b11100 )
b1001100 *
1$
1&
0!
#1815
1+
0"
1,
b100000 -
b1110 )
b1111 %
b101011 *
1'
b100000 .
1!
#1820
b100000 %
x'
x(
bx )
bx *
0&
0!
#1825
0"
x,
bx -
x+
bx %
b1000001 .
0$
1!
#1830
0!
#1835
0+
0,
0"
b111110 %
b1000001 -
1'
0(
b1011 )
b111110 *
1$
1&
1!
#1840
0"
x,
bx -
x+
bx %
x'
x(
bx )
bx *
0$
0&
0!
#1845
0'
0(
b1111011 )
b1011000 *
1&
1!
#1850
0+
0,
0"
b1000000 )
b1011110 %
b1000001 -
b100100 *
1$
0!
#1855
0"
b10 -
b1011010 %
x'
x(
bx )
bx *
b10 .
0&
1!
#1860
0"
x,
bx -
x+
bx %
0'
0(
b1100111 )
b10010 *
0$
1&
0!
#1865
1+
1,
0"
b1011011 )
b1101010 %
b10 -
b1100000 *
1'
1$
1!
#1870
0"
x,
b1110111 )
bx -
x+
bx %
b1100101 *
0'
0$
0!
#1875
x'
x(
bx )
bx *
0&
1!
#1880
0!
#1885
0+
0,
0"
b1111000 %
b10 -
1$
1!
#1890
0"
x,
bx -
x+
bx %
1'
0(
b1011010 )
b1011100 *
0$
1&
0!
#1895
0+
0,
0"
b1100101 %
b10 -
x'
x(
bx )
bx *
1$
0&
1!
#1900
0"
x,
bx -
x+
bx %
0$
0!
#1905
0+
0,
0"
b1110001 %
b10 -
1$
1!
#1910
b1000100 %
0!
#1915
0"
x,
bx -
x+
bx %
b100 .
0$
1!
#1920
0+
0,
0"
b1101010 %
b100 -
1'
0(
b101100 )
b100 *
1$
1&
0!
#1925
0"
x,
b110101 )
bx -
x+
bx %
b1001110 *
b1000 .
0$
1!
#1930
0+
0,
0"
b1001100 %
b1000 -
x'
x(
bx )
bx *
1$
0&
0!
#1935
0"
x,
bx -
x+
bx %
b10000 .
0$
1!
#1940
0+
0,
0"
b1011 %
b10000 -
1$
0!
#1945
0"
x,
bx -
x+
bx %
b100000 .
0$
1!
#1950
0+
0,
0"
b1000011 %
b100000 -
0'
0(
b1101000 )
b101101 *
1$
1&
0!
#1955
0"
x,
bx -
x+
bx %
x'
x(
bx )
bx *
b1000000 .
0$
0&
1!
#1960
0!
#1965
1!
#1970
0+
0,
0"
b101101 %
b1000000 -
1$
0!
#1975
0"
x,
bx -
x+
bx %
1'
0(
b1011 )
b111010 *
b0 .
0$
1&
1!
#1980
1+
1,
0"
b101111 %
b0 -
x'
x(
bx )
bx *
1$
0&
0!
#1985
0+
0"
b1 -
0,
b101010 %
1'
0(
b10010 )
b100010 *
b1 .
1&
1!
#1990
b1100001 )
b1101011 %
b100000 *
0!
#1995
0"
x,
bx -
x+
bx %
x'
x(
bx )
bx *
b10 .
0$
0&
1!
#2000
0!
#2005
1!
#2010
1'
0(
b101101 )
b1111100 *
1&
0!
#2015
1+
1,
0"
b1101100 )
b100010 %
b10 -
b1110111 *
0'
1$
1!
#2020
0"
0+
0,
b1111000 )
b1011001 %
b1111111 *
1'
0!
#2025
0"
b100 -
b1111011 )
b1111011 %
b1001001 *
b100 .
1!
#2030
b1001101 %
x'
x(
bx )
bx *
0&
0!
#2035
0"
x,
bx -
x+
bx %
0'
1(
b1101010 )
b10010 *
b1000 .
0$
1&
1!
#2040
x'
x(
bx )
bx *
0&
0!
#2045
0+
0,
0"
b111000 %
b1000 -
1$
1!
#2050
0"
x,
bx -
x+
bx %
0$
0!
#2055
0+
0,
0"
b1001010 %
b1000 -
0'
0(
b1111011 )
b1100101 *
1$
1&
1!
#2060
0"
x,
b1001001 )
bx -
x+
bx %
b11011 *
1'
0$
0!
#2065
0+
0,
0"
b110000 %
b1000 -
x'
x(
bx )
bx *
1$
0&
1!
#2070
b1111000 %
1'
0(
b1101 )
b1110111 *
1&
0!
#2075
0"
b10000 -
b1010001 )
b110011 %
b1100000 *
b10000 .
1!
#2080
0"
x,
bx -
x+
bx %
x'
x(
bx )
bx *
0$
0&
0!
#2085
1!
#2090
0+
0,
0"
b111010 %
b10000 -
1$
0!
#2095
1+
0"
1,
b100000 -
b1000010 %
b100000 .
1!
#2100
0"
x,
bx -
x+
bx %
0'
0(
b1010111 )
b1000010 *
0$
1&
0!
#2105
b10001 )
b11 *
1!
#2110
0+
0,
0"
b1111100 %
b100000 -
x'
x(
bx )
bx *
1$
0&
0!
#2115
0"
b1000000 -
b1000001 %
1'
0(
b1000110 )
b1101101 *
b1000000 .
1&
1!
#2120
b1110110 %
x'
x(
bx )
bx *
0&
0!
#2125
0"
b0 -
b11101 %
1'
0(
b1100010 )
b100110 *
b0 .
1&
1!
#2130
0"
1+
1,
b1000001 %
x'
x(
bx )
bx *
0&
0!
#2135
0"
x,
bx -
x+
bx %
b1 .
0$
1!
#2140
0!
#2145
0+
0,
0"
b100 %
b1 -
0'
0(
b111011 )
b1110100 *
1$
1&
1!
#2150
0"
x,
b1011000 )
bx -
x+
bx %
b1011111 *
0$
0!
#2155
b110 )
b1100101 *
1'
1!
#2160
0+
0,
0"
b110001 %
b1 -
x'
x(
bx )
bx *
1$
0&
0!
#2165
0"
b10 -
b1001 %
0'
0(
b1110011 )
b1010011 *
b10 .
1&
1!
#2170
b111010 %
x'
x(
bx )
bx *
0&
0!
#2175
0"
x,
bx -
x+
bx %
0'
0(
b1 )
b1110 *
b100 .
0$
1&
1!
#2180
0+
0,
0"
b1111110 )
b1110111 %
b100 -
b1100011 *
1'
1$
0!
#2185
0"
x,
b110011 )
bx -
x+
bx %
b11 *
b1000 .
0$
1!
#2190
0+
0,
0"
b1010010 %
b1000 -
x'
x(
bx )
bx *
1$
0&
0!
#2195
1+
0"
1,
b10000 -
b11 %
0'
0(
b1010011 )
b1010010 *
b10000 .
1&
1!
#2200
0"
x,
bx -
x+
bx %
x'
x(
bx )
bx *
0$
0&
0!
#2205
0'
0(
b1001 )
b1001 *
1&
1!
#2210
x'
x(
bx )
bx *
0&
0!
#2215
0+
0,
0"
b101000 %
b10000 -
1$
1!
#2220
0"
x,
bx -
x+
bx %
0$
0!
#2225
0+
0,
0"
b100111 %
b10000 -
0'
0(
b0 )
b1110100 *
1$
1&
1!
#2230
0"
1+
1,
b1000011 %
x'
x(
bx )
bx *
0&
0!
#2235
0+
0"
0,
b100001 -
b1011000 %
0'
0(
b1010001 )
b110100 *
b100001 .
1&
1!
#2240
0"
x,
b110011 )
bx -
x+
bx %
b10001 *
0$
0!
#2245
0+
0,
0"
b1100011 %
b100001 -
x'
x(
bx )
bx *
1$
0&
1!
#2250
b1000000 %
0'
0(
b110001 )
b100000 *
1&
0!
