wave.vcd
$date
	Fri May 29 18:28:38 2026
$end
$version
	Icarus Verilog
$end
$timescale
	1ps
$end
$scope module tb $end
$scope module stim1 $end
$var wire 1 ! clk $end
$upscope $end
$upscope $end
$scope module tb $end
$var wire 1 " tb_mismatch $end
$upscope $end
$scope module tb $end
$var reg 1 ! clk $end
$upscope $end
$scope module tb $end
$var wire 1 # load $end
$upscope $end
$scope module tb $end
$var wire 10 $ data [9:0] $end
$upscope $end
$scope module tb $end
$var wire 1 % tc_ref $end
$upscope $end
$scope module tb $end
$var wire 1 & tc_dut $end
$upscope $end
$enddefinitions $end
$comment Show the parameter values. $end
$dumpall
$end
#0
$dumpvars
x&
x%
bx $
0#
0"
0!
$end
#5
b11 $
1#
1&
1!
#10
0!
#15
0"
0&
0%
bx $
0#
1!
#20
0!
#25
1!
#30
0!
#35
1!
#40
0!
#45
0"
1%
1&
1!
#50
0!
#55
b1010 $
1#
1!
#60
0!
#65
0"
bx $
0#
0%
0&
1!
#70
0!
#75
1!
#80
0!
#85
1!
#90
0!
#95
1!
#100
0!
#105
1!
#110
0!
#115
1!
#120
0!
#125
1!
#130
0!
#135
1!
#140
0!
#145
1!
#150
0!
#155
1!
#160
0!
#165
0"
1%
1&
1!
#170
0!
#175
1!
#180
0!
#185
1!
#190
0!
#195
1#
b10000 $
1!
#200
0!
#205
0"
0#
0%
0&
1!
#210
0!
#215
1#
b0 $
1!
#220
0!
#225
0"
b1111111111 $
1%
1&
1!
#230
0!
#235
0"
0&
0%
0#
b0 $
1!
