wave.vcd
$date
	Sat May 30 23:33:50 2026
$end
$version
	Icarus Verilog
$end
$timescale
	1ps
$end
$scope module tb $end
$scope module stim1 $end
$var wire 1 ! clk $end
$upscope $end
$upscope $end
$scope module tb $end
$var wire 1 " tb_mismatch $end
$upscope $end
$scope module tb $end
$var wire 1 # a $end
$upscope $end
$scope module tb $end
$var wire 1 $ b $end
$upscope $end
$scope module tb $end
$var wire 1 % c $end
$upscope $end
$scope module tb $end
$var wire 1 & d $end
$upscope $end
$scope module tb $end
$var wire 1 ' out_sop_ref $end
$upscope $end
$scope module tb $end
$var wire 1 ( out_sop_dut $end
$upscope $end
$scope module tb $end
$var wire 1 ) out_pos_ref $end
$upscope $end
$scope module tb $end
$var wire 1 * out_pos_dut $end
$upscope $end
$enddefinitions $end
$comment Show the parameter values. $end
$dumpall
$end
#0
$dumpvars
x*
x)
x(
x'
x&
x%
x$
x#
0"
0!
$end
#5
0)
0*
0(
0"
0'
0#
0$
0%
0&
1!
#10
0!
#15
1&
1!
#20
0!
#25
1*
1)
0"
1(
1'
1%
0&
1!
#30
0!
#35
0*
0(
0)
0"
0'
1$
0%
1!
#40
0!
#45
1&
1!
#50
0!
#55
1"
1*
1%
0&
1!
#60
0!
#65
0"
1)
1(
1'
1&
1!
#70
0!
#75
0(
0)
0"
0*
0'
1#
0$
0%
1!
#80
0!
#85
1%
0&
1!
#90
0!
#95
1$
0%
1&
1!
#100
0!
#105
1%
0&
1!
#110
0!
#115
1)
1*
0"
1(
1'
1&
1!
#120
0!
#125
1!
#130
0!
#135
0)
0"
0*
0(
0'
0#
0$
0%
0&
1!
#140
0!
#145
1&
1!
#150
0!
#155
1*
1)
0"
1(
1'
1%
0&
1!
#160
0!
#165
1"
0*
0(
1&
1!
#170
0!
#175
0"
0)
0'
1$
0%
0&
1!
#180
0!
#185
1&
1!
#190
0!
#195
1"
1*
1%
0&
1!
#200
0!
#205
0"
1)
1(
1'
1&
1!
#210
0!
#215
0)
0"
0*
0(
0'
1#
0$
0%
0&
1!
#220
0!
#225
1&
1!
#230
0!
#235
1%
0&
1!
#240
0!
#245
x)
0*
1"
1'
1&
1!
#250
0!
#255
0)
0"
0'
1$
0%
0&
1!
#260
0!
#265
1&
1!
#270
0!
#275
1%
0&
1!
#280
0!
#285
1)
1*
0"
1(
1'
1&
1!
#290
0)
0"
0*
0(
0'
0#
0%
0&
0!
#295
0$
1&
1!
#300
1#
0!
#305
1)
1"
1'
0#
1%
1!
#310
0"
0)
0'
1#
1$
0%
0!
#315
1!
#320
0#
0!
#325
1(
1)
0"
1'
1*
0$
1%
0&
1!
#330
0*
0)
0"
0(
0'
0%
1&
0!
#335
1#
1$
1!
#340
1"
1*
0#
1%
0&
0!
#345
0"
0*
0(
1#
0%
1&
1!
#350
0!
#355
0&
1!
#360
0$
1&
0!
#365
1*
1"
0)
0#
1$
1%
0&
1!
#370
0"
0*
0(
0%
1&
0!
#375
0"
0*
1#
0$
1%
0&
1!
#380
0#
1$
0%
1&
0!
#385
1(
1)
0"
1*
1'
1%
1!
#390
1)
0"
1(
1'
0$
0&
0!
#395
1#
1$
1&
1!
#400
1)
1*
0"
1(
1'
0#
0$
0&
0!
#405
0(
0)
0"
0*
0'
1#
1$
1!
#410
0$
0%
0!
#415
0#
1$
1&
1!
#420
1#
0&
0!
#425
1&
1!
#430
0!
#435
0#
1!
#440
1)
1"
0*
1'
0$
1%
0!
#445
0"
0)
0'
0(
1#
0&
1!
#450
0#
0%
0!
#455
1!
#460
0(
0)
0"
0'
1#
1%
0!
#465
1$
0%
1&
1!
#470
1"
1*
0#
1%
0&
0!
#475
1"
0*
1)
0(
1'
0$
1&
1!
#480
0"
0)
0'
1#
1$
0%
0!
#485
1)
1"
0*
1'
0#
0$
1%
1!
#490
x)
1#
0!
#495
0)
0"
0'
0#
1$
0%
1!
#500
1(
1)
0"
1'
1*
0$
1%
0&
0!
#505
0(
0)
0"
0*
0'
1#
1$
1!
#510
0"
0(
0%
1&
0!
#515
1(
1)
0"
1*
1'
1%
1!
#520
0*
1"
0(
1)
0#
0$
0!
#525
0"
0)
0'
0(
1#
0&
1!
#530
0!
#535
1$
0%
1!
